95 12609
1 2
1 3
1 4
1 5
1 6
1 8
1 9
1 14
1 15
1 16
1 18
1 19
1 21
1 22
1 23
1 25
1 27
1 29
1 31
1 33
1 36
1 44
1 46
1 47
1 52
1 56
1 59
1 61
1 63
1 64
1 66
1 78
1 79
1 80
1 82
1 83
1 85
1 86
1 89
1 96
1 97
1 98
1 99
1 100
1 102
1 104
1 108
1 115
1 116
1 120
1 121
1 123
1 124
1 125
1 129
1 130
1 131
1 134
1 137
1 138
1 139
1 141
1 142
1 143
1 144
1 147
1 148
1 149
1 151
2 3
2 4
2 6
2 8
2 9
2 11
2 14
2 15
2 16
2 18
2 21
2 22
2 27
2 29
2 31
2 33
2 36
2 45
2 46
2 47
2 49
2 57
2 59
2 61
2 62
2 63
2 64
2 65
2 66
2 79
2 80
2 82
2 85
2 87
2 89
2 91
2 92
2 95
2 96
2 97
2 98
2 102
2 104
2 105
2 108
2 111
2 113
2 115
2 118
2 121
2 122
2 123
2 124
2 128
2 129
2 130
2 137
2 139
2 140
2 141
2 142
2 147
2 151
2 153
3 5
3 6
3 8
3 15
3 16
3 18
3 19
3 21
3 25
3 31
3 33
3 36
3 40
3 42
3 44
3 45
3 46
3 47
3 49
3 57
3 59
3 61
3 62
3 63
3 65
3 66
3 79
3 80
3 82
3 83
3 85
3 86
3 87
3 91
3 95
3 98
3 104
3 105
3 108
3 115
3 118
3 120
3 121
3 124
3 125
3 129
3 130
3 132
3 134
3 137
3 138
3 139
3 142
3 143
3 144
3 147
3 148
3 149
3 151
4 5
4 6
4 8
4 9
4 11
4 14
4 15
4 16
4 18
4 19
4 20
4 21
4 22
4 23
4 27
4 31
4 33
4 40
4 42
4 44
4 46
4 56
4 57
4 59
4 61
4 63
4 67
4 70
4 78
4 79
4 80
4 83
4 85
4 86
4 87
4 91
4 92
4 95
4 96
4 98
4 99
4 102
4 103
4 104
4 105
4 108
4 113
4 115
4 118
4 120
4 121
4 122
4 123
4 124
4 125
4 128
4 130
4 131
4 132
4 138
4 140
4 142
4 143
4 147
4 148
4 149
4 151
4 155
5 6
5 8
5 9
5 11
5 15
5 16
5 18
5 19
5 20
5 21
5 25
5 27
5 29
5 31
5 33
5 36
5 40
5 42
5 45
5 46
5 47
5 49
5 52
5 56
5 57
5 59
5 61
5 62
5 63
5 65
5 66
5 67
5 78
5 79
5 82
5 83
5 86
5 89
5 91
5 92
5 95
5 96
5 97
5 98
5 99
5 102
5 103
5 104
5 108
5 111
5 113
5 115
5 118
5 120
5 121
5 122
5 123
5 125
5 128
5 129
5 130
5 131
5 132
5 134
5 138
5 140
5 141
5 142
5 143
5 147
5 148
5 149
5 151
6 8
6 9
6 11
6 14
6 15
6 16
6 19
6 21
6 22
6 25
6 29
6 31
6 33
6 40
6 42
6 44
6 45
6 46
6 52
6 56
6 57
6 61
6 62
6 63
6 64
6 65
6 66
6 78
6 80
6 82
6 85
6 87
6 89
6 91
6 92
6 95
6 96
6 97
6 99
6 102
6 103
6 104
6 105
6 111
6 115
6 116
6 118
6 121
6 123
6 124
6 125
6 128
6 130
6 131
6 132
6 134
6 138
6 139
6 141
6 142
6 143
6 144
6 147
6 149
6 151
6 157
7 2
7 3
7 4
7 5
7 11
7 15
7 16
7 18
7 19
7 21
7 22
7 23
7 25
7 27
7 29
7 31
7 32
7 33
7 37
7 40
7 44
7 45
7 46
7 47
7 52
7 56
7 57
7 59
7 61
7 65
7 66
7 67
7 70
7 76
7 77
7 79
7 81
7 82
7 83
7 85
7 86
7 87
7 89
7 92
7 95
7 96
7 98
7 99
7 100
7 102
7 103
7 105
7 108
7 110
7 111
7 115
7 116
7 118
7 120
7 121
7 123
7 125
7 127
7 129
7 130
7 131
7 134
7 139
7 140
7 141
7 142
7 143
7 144
7 147
7 149
7 151
8 9
8 11
8 14
8 15
8 16
8 18
8 22
8 23
8 25
8 27
8 29
8 31
8 33
8 36
8 44
8 45
8 47
8 49
8 56
8 59
8 61
8 62
8 64
8 65
8 66
8 67
8 70
8 79
8 80
8 82
8 85
8 86
8 87
8 91
8 92
8 95
8 96
8 97
8 99
8 102
8 103
8 104
8 105
8 111
8 113
8 115
8 118
8 120
8 121
8 122
8 123
8 124
8 125
8 128
8 129
8 131
8 132
8 138
8 139
8 140
8 141
8 142
8 143
8 144
8 147
8 148
8 149
8 151
9 11
9 14
9 15
9 18
9 19
9 21
9 22
9 25
9 27
9 29
9 33
9 36
9 42
9 44
9 46
9 49
9 52
9 56
9 57
9 59
9 61
9 62
9 63
9 65
9 67
9 70
9 78
9 80
9 83
9 86
9 87
9 89
9 92
9 95
9 97
9 98
9 99
9 104
9 108
9 111
9 113
9 115
9 116
9 118
9 120
9 121
9 122
9 123
9 124
9 125
9 129
9 130
9 131
9 132
9 134
9 137
9 138
9 139
9 140
9 142
9 144
9 147
9 149
9 151
9 159
10 1
10 3
10 4
10 5
10 6
10 7
10 8
10 11
10 12
10 13
10 14
10 15
10 16
10 17
10 20
10 21
10 22
10 23
10 25
10 26
10 27
10 29
10 32
10 33
10 35
10 36
10 37
10 40
10 41
10 44
10 45
10 46
10 47
10 49
10 52
10 53
10 56
10 57
10 58
10 59
10 61
10 62
10 63
10 64
10 65
10 66
10 67
10 68
10 70
10 73
10 76
10 77
10 78
10 79
10 80
10 81
10 82
10 83
10 84
10 85
10 86
10 89
10 91
10 92
10 93
10 96
10 97
10 98
10 99
10 100
10 102
10 103
10 104
10 105
10 106
10 108
10 110
10 111
10 112
10 113
10 115
10 116
10 118
10 120
10 121
10 122
10 123
10 124
10 127
10 128
10 129
10 130
10 131
10 132
10 133
10 134
10 137
10 138
10 139
10 141
10 142
10 143
10 144
10 147
10 148
10 149
10 150
10 151
11 14
11 15
11 16
11 19
11 20
11 21
11 23
11 25
11 27
11 29
11 31
11 33
11 36
11 40
11 42
11 45
11 46
11 49
11 57
11 59
11 62
11 63
11 64
11 67
11 70
11 78
11 79
11 80
11 82
11 85
11 87
11 89
11 91
11 92
11 95
11 98
11 100
11 103
11 104
11 105
11 108
11 111
11 115
11 118
11 122
11 123
11 125
11 128
11 129
11 131
11 132
11 137
11 138
11 139
11 141
11 143
11 144
11 147
11 148
11 151
12 1
12 2
12 3
12 4
12 5
12 6
12 7
12 8
12 9
12 11
12 13
12 14
12 15
12 16
12 17
12 18
12 19
12 20
12 21
12 22
12 23
12 25
12 26
12 27
12 29
12 30
12 31
12 32
12 33
12 35
12 36
12 37
12 38
12 40
12 41
12 42
12 44
12 45
12 46
12 47
12 49
12 52
12 53
12 57
12 58
12 59
12 62
12 63
12 64
12 65
12 66
12 67
12 68
12 70
12 73
12 76
12 77
12 78
12 79
12 80
12 81
12 82
12 83
12 85
12 86
12 87
12 89
12 91
12 92
12 93
12 95
12 96
12 97
12 98
12 99
12 102
12 103
12 104
12 105
12 106
12 108
12 110
12 111
12 112
12 113
12 115
12 116
12 118
12 120
12 121
12 122
12 123
12 124
12 125
12 126
12 127
12 128
12 129
12 130
12 131
12 132
12 133
12 134
12 135
12 137
12 138
12 139
12 140
12 141
12 142
12 143
12 144
12 145
12 148
12 149
12 150
12 151
13 2
13 4
13 5
13 6
13 8
13 9
13 11
13 14
13 15
13 16
13 18
13 19
13 20
13 21
13 22
13 23
13 29
13 31
13 33
13 40
13 42
13 44
13 47
13 56
13 59
13 61
13 63
13 64
13 66
13 70
13 77
13 78
13 79
13 82
13 83
13 86
13 87
13 89
13 91
13 92
13 95
13 96
13 97
13 100
13 102
13 104
13 105
13 108
13 113
13 115
13 116
13 118
13 121
13 122
13 123
13 128
13 129
13 130
13 131
13 134
13 137
13 138
13 139
13 141
13 142
13 144
13 147
13 148
13 149
13 151
14 15
14 16
14 18
14 19
14 20
14 21
14 22
14 23
14 27
14 29
14 31
14 33
14 36
14 40
14 44
14 45
14 46
14 47
14 49
14 52
14 57
14 59
14 61
14 62
14 63
14 65
14 66
14 67
14 70
14 79
14 83
14 85
14 86
14 87
14 89
14 91
14 92
14 96
14 97
14 98
14 99
14 104
14 105
14 111
14 113
14 115
14 116
14 118
14 120
14 121
14 122
14 123
14 125
14 128
14 129
14 130
14 131
14 132
14 134
14 137
14 138
14 139
14 140
14 141
14 142
14 143
14 144
14 147
14 148
14 149
14 151
14 161
15 16
15 18
15 19
15 20
15 21
15 22
15 23
15 25
15 27
15 29
15 31
15 33
15 36
15 40
15 42
15 44
15 45
15 46
15 47
15 49
15 52
15 56
15 59
15 61
15 62
15 65
15 66
15 70
15 78
15 79
15 82
15 83
15 87
15 89
15 91
15 92
15 95
15 96
15 97
15 98
15 102
15 104
15 108
15 111
15 115
15 118
15 122
15 124
15 128
15 130
15 132
15 134
15 139
15 140
15 141
15 142
15 143
15 147
15 151
16 19
16 20
16 21
16 22
16 23
16 25
16 27
16 31
16 36
16 40
16 42
16 44
16 45
16 46
16 47
16 52
16 56
16 57
16 59
16 63
16 64
16 66
16 67
16 78
16 79
16 82
16 83
16 85
16 86
16 89
16 91
16 92
16 95
16 96
16 97
16 98
16 99
16 102
16 103
16 104
16 108
16 113
16 118
16 120
16 121
16 122
16 123
16 124
16 125
16 128
16 129
16 130
16 131
16 134
16 138
16 139
16 140
16 141
16 142
16 148
16 151
16 163
17 1
17 2
17 3
17 4
17 5
17 7
17 8
17 9
17 11
17 13
17 14
17 15
17 18
17 19
17 22
17 23
17 25
17 27
17 30
17 31
17 32
17 33
17 36
17 37
17 40
17 41
17 42
17 44
17 45
17 46
17 47
17 49
17 52
17 53
17 56
17 57
17 58
17 59
17 61
17 62
17 63
17 65
17 66
17 68
17 70
17 73
17 76
17 77
17 78
17 79
17 81
17 82
17 85
17 86
17 87
17 89
17 91
17 92
17 95
17 96
17 97
17 98
17 102
17 103
17 105
17 106
17 108
17 110
17 111
17 112
17 113
17 115
17 116
17 118
17 121
17 122
17 123
17 124
17 125
17 126
17 127
17 129
17 130
17 131
17 132
17 133
17 134
17 136
17 138
17 139
17 140
17 141
17 142
17 145
17 147
17 148
17 149
17 151
18 20
18 21
18 22
18 23
18 25
18 31
18 36
18 44
18 46
18 47
18 57
18 59
18 61
18 63
18 64
18 66
18 67
18 70
18 78
18 79
18 83
18 85
18 86
18 87
18 91
18 92
18 95
18 96
18 98
18 99
18 102
18 103
18 105
18 111
18 113
18 115
18 116
18 122
18 124
18 125
18 129
18 130
18 131
18 132
18 134
18 137
18 138
18 139
18 141
18 142
18 143
18 144
18 147
18 148
18 149
18 151
19 20
19 21
19 22
19 23
19 27
19 29
19 31
19 44
19 45
19 46
19 47
19 49
19 52
19 56
19 57
19 59
19 64
19 65
19 67
19 70
19 78
19 80
19 82
19 85
19 86
19 87
19 89
19 91
19 92
19 95
19 96
19 97
19 99
19 102
19 104
19 105
19 111
19 113
19 115
19 118
19 120
19 121
19 124
19 125
19 128
19 129
19 130
19 131
19 132
19 134
19 137
19 138
19 139
19 140
19 142
19 143
19 147
19 149
19 151
19 165
20 21
20 25
20 27
20 29
20 31
20 36
20 42
20 44
20 45
20 46
20 47
20 52
20 56
20 59
20 61
20 63
20 79
20 80
20 82
20 83
20 95
20 96
20 98
20 99
20 100
20 103
20 104
20 108
20 113
20 116
20 118
20 121
20 123
20 124
20 129
20 130
20 131
20 132
20 140
20 141
20 142
20 143
20 144
20 148
20 149
20 151
21 22
21 27
21 29
21 33
21 36
21 40
21 42
21 44
21 46
21 47
21 49
21 56
21 57
21 59
21 61
21 62
21 63
21 64
21 70
21 78
21 79
21 83
21 86
21 89
21 91
21 96
21 98
21 99
21 102
21 104
21 108
21 111
21 118
21 120
21 121
21 122
21 123
21 125
21 129
21 130
21 132
21 134
21 138
21 140
21 141
21 142
21 143
21 147
21 149
21 151
21 167
22 25
22 27
22 29
22 31
22 42
22 44
22 45
22 47
22 49
22 52
22 56
22 57
22 59
22 62
22 63
22 64
22 65
22 67
22 70
22 78
22 79
22 80
22 82
22 83
22 86
22 87
22 89
22 95
22 96
22 97
22 98
22 99
22 100
22 103
22 104
22 105
22 108
22 111
22 113
22 115
22 118
22 120
22 121
22 122
22 123
22 124
22 125
22 128
22 129
22 130
22 131
22 132
22 134
22 137
22 138
22 139
22 141
22 142
22 143
22 147
22 151
23 27
23 29
23 42
23 44
23 46
23 52
23 56
23 57
23 59
23 61
23 62
23 63
23 64
23 65
23 67
23 70
23 78
23 79
23 80
23 82
23 83
23 85
23 87
23 91
23 92
23 96
23 97
23 99
23 100
23 103
23 104
23 105
23 108
23 111
23 113
23 116
23 118
23 120
23 121
23 123
23 124
23 125
23 128
23 130
23 131
23 137
23 138
23 139
23 140
23 141
23 142
23 144
23 149
23 151
23 169
24 1
24 2
24 3
24 4
24 5
24 6
24 7
24 8
24 9
24 11
24 13
24 14
24 15
24 16
24 17
24 18
24 19
24 20
24 21
24 22
24 23
24 25
24 27
24 29
24 30
24 31
24 32
24 33
24 35
24 36
24 37
24 40
24 41
24 42
24 44
24 45
24 46
24 47
24 49
24 52
24 53
24 56
24 57
24 58
24 59
24 61
24 62
24 63
24 64
24 65
24 66
24 67
24 68
24 70
24 73
24 76
24 77
24 78
24 79
24 80
24 81
24 82
24 83
24 85
24 86
24 87
24 89
24 91
24 92
24 95
24 96
24 97
24 98
24 99
24 100
24 102
24 103
24 104
24 105
24 106
24 108
24 110
24 111
24 112
24 113
24 115
24 116
24 118
24 120
24 121
24 122
24 123
24 124
24 125
24 126
24 127
24 128
24 129
24 130
24 131
24 132
24 133
24 134
24 135
24 137
24 138
24 139
24 140
24 141
24 142
24 143
24 144
24 145
24 147
24 148
24 149
24 150
24 151
25 27
25 31
25 33
25 36
25 40
25 42
25 44
25 46
25 47
25 52
25 61
25 63
25 64
25 65
25 70
25 78
25 79
25 82
25 83
25 85
25 86
25 87
25 89
25 91
25 92
25 96
25 97
25 98
25 99
25 104
25 108
25 111
25 113
25 115
25 116
25 118
25 120
25 121
25 124
25 128
25 129
25 130
25 131
25 132
25 134
25 138
25 139
25 141
25 143
25 147
25 151
26 1
26 3
26 4
26 5
26 6
26 7
26 8
26 9
26 11
26 14
26 15
26 16
26 17
26 19
26 21
26 23
26 24
26 25
26 27
26 29
26 30
26 31
26 32
26 33
26 35
26 36
26 37
26 41
26 42
26 44
26 45
26 46
26 47
26 52
26 53
26 56
26 57
26 58
26 59
26 61
26 62
26 63
26 64
26 65
26 66
26 67
26 68
26 70
26 76
26 77
26 78
26 79
26 80
26 82
26 83
26 85
26 86
26 87
26 89
26 91
26 92
26 96
26 98
26 99
26 100
26 102
26 103
26 104
26 105
26 106
26 108
26 110
26 111
26 113
26 115
26 116
26 118
26 120
26 121
26 123
26 124
26 125
26 126
26 127
26 128
26 129
26 130
26 131
26 132
26 133
26 134
26 135
26 137
26 138
26 139
26 140
26 141
26 143
26 144
26 145
26 147
26 149
26 150
26 151
27 31
27 33
27 36
27 40
27 45
27 46
27 47
27 49
27 52
27 57
27 59
27 62
27 63
27 64
27 65
27 66
27 67
27 70
27 79
27 80
27 82
27 83
27 85
27 86
27 87
27 89
27 91
27 92
27 95
27 97
27 98
27 102
27 104
27 105
27 108
27 113
27 115
27 118
27 120
27 123
27 124
27 125
27 128
27 129
27 130
27 131
27 132
27 134
27 137
27 138
27 139
27 140
27 142
27 143
27 147
27 148
27 149
27 151
27 171
28 1
28 2
28 3
28 5
28 6
28 7
28 8
28 11
28 13
28 15
28 16
28 17
28 18
28 19
28 20
28 21
28 22
28 25
28 27
28 29
28 31
28 32
28 33
28 36
28 37
28 40
28 41
28 42
28 44
28 45
28 46
28 47
28 49
28 56
28 57
28 58
28 59
28 61
28 62
28 63
28 64
28 66
28 67
28 69
28 70
28 78
28 79
28 81
28 82
28 83
28 85
28 86
28 89
28 91
28 92
28 95
28 96
28 97
28 98
28 99
28 100
28 102
28 103
28 104
28 106
28 110
28 111
28 112
28 113
28 115
28 116
28 118
28 120
28 121
28 122
28 123
28 124
28 125
28 126
28 127
28 128
28 129
28 130
28 131
28 133
28 138
28 139
28 141
28 142
28 143
28 145
28 147
28 149
28 150
28 151
29 31
29 33
29 40
29 42
29 44
29 45
29 46
29 47
29 49
29 52
29 56
29 57
29 61
29 63
29 64
29 65
29 66
29 67
29 78
29 79
29 82
29 83
29 87
29 89
29 91
29 92
29 95
29 96
29 97
29 99
29 100
29 102
29 104
29 105
29 111
29 113
29 116
29 118
29 121
29 122
29 123
29 124
29 125
29 128
29 129
29 130
29 131
29 132
29 137
29 138
29 139
29 140
29 141
29 142
29 143
29 147
29 148
29 149
29 151
30 1
30 3
30 4
30 8
30 9
30 11
30 14
30 15
30 16
30 18
30 19
30 21
30 22
30 23
30 25
30 27
30 31
30 33
30 40
30 42
30 45
30 46
30 56
30 59
30 61
30 62
30 63
30 64
30 65
30 66
30 70
30 76
30 77
30 79
30 91
30 92
30 96
30 97
30 99
30 104
30 108
30 111
30 113
30 115
30 116
30 120
30 121
30 123
30 125
30 128
30 130
30 138
30 139
30 141
30 143
30 147
30 148
30 149
30 151
31 33
31 36
31 40
31 42
31 44
31 45
31 47
31 52
31 56
31 57
31 62
31 65
31 66
31 70
31 82
31 83
31 85
31 87
31 89
31 92
31 96
31 98
31 99
31 102
31 104
31 108
31 111
31 113
31 116
31 118
31 120
31 121
31 123
31 125
31 128
31 129
31 131
31 132
31 137
31 138
31 140
31 141
31 142
31 143
31 147
31 149
31 151
31 173
32 1
32 2
32 3
32 4
32 5
32 8
32 11
32 14
32 15
32 19
32 20
32 22
32 23
32 25
32 27
32 29
32 31
32 33
32 37
32 42
32 44
32 45
32 47
32 49
32 52
32 56
32 61
32 63
32 64
32 65
32 67
32 70
32 77
32 78
32 80
32 81
32 83
32 85
32 87
32 89
32 95
32 96
32 97
32 98
32 102
32 103
32 108
32 113
32 115
32 116
32 118
32 120
32 121
32 123
32 129
32 131
32 132
32 134
32 138
32 139
32 140
32 141
32 142
32 143
32 144
32 148
32 149
32 151
33 42
33 44
33 45
33 47
33 49
33 52
33 56
33 57
33 59
33 61
33 64
33 65
33 66
33 67
33 70
33 78
33 79
33 82
33 83
33 85
33 87
33 91
33 95
33 98
33 99
33 100
33 102
33 104
33 105
33 111
33 113
33 115
33 121
33 123
33 128
33 130
33 132
33 134
33 137
33 139
33 140
33 144
33 148
33 149
33 151
34 2
34 3
34 4
34 5
34 6
34 8
34 9
34 11
34 13
34 14
34 15
34 16
34 18
34 20
34 21
34 22
34 23
34 25
34 27
34 29
34 30
34 31
34 32
34 33
34 36
34 37
34 40
34 42
34 44
34 45
34 52
34 56
34 57
34 59
34 61
34 62
34 63
34 64
34 65
34 66
34 67
34 77
34 78
34 80
34 81
34 82
34 83
34 86
34 87
34 89
34 91
34 92
34 96
34 98
34 99
34 100
34 102
34 103
34 104
34 108
34 110
34 115
34 116
34 121
34 122
34 123
34 124
34 128
34 129
34 130
34 131
34 132
34 134
34 137
34 138
34 139
34 140
34 141
34 143
34 144
34 149
34 151
35 1
35 2
35 3
35 4
35 5
35 6
35 7
35 8
35 9
35 11
35 13
35 15
35 16
35 17
35 18
35 19
35 20
35 21
35 22
35 23
35 25
35 27
35 28
35 29
35 31
35 32
35 33
35 36
35 40
35 41
35 42
35 44
35 46
35 47
35 49
35 52
35 53
35 56
35 57
35 58
35 59
35 61
35 62
35 63
35 64
35 65
35 66
35 67
35 68
35 70
35 73
35 77
35 78
35 79
35 80
35 81
35 82
35 83
35 85
35 86
35 87
35 89
35 92
35 95
35 96
35 97
35 98
35 99
35 100
35 102
35 103
35 104
35 105
35 106
35 108
35 110
35 111
35 112
35 113
35 116
35 118
35 120
35 121
35 123
35 124
35 125
35 126
35 127
35 128
35 129
35 130
35 131
35 132
35 133
35 134
35 137
35 138
35 139
35 140
35 141
35 142
35 143
35 144
35 145
35 147
35 148
35 149
35 150
35 151
36 40
36 42
36 44
36 49
36 52
36 59
36 61
36 62
36 64
36 65
36 66
36 67
36 70
36 78
36 79
36 83
36 85
36 87
36 89
36 91
36 92
36 95
36 96
36 97
36 98
36 100
36 102
36 104
36 105
36 111
36 113
36 115
36 118
36 121
36 123
36 125
36 128
36 130
36 131
36 132
36 134
36 137
36 138
36 140
36 141
36 142
36 144
36 147
36 148
36 149
36 151
36 175
37 1
37 2
37 3
37 4
37 5
37 8
37 9
37 11
37 14
37 15
37 16
37 18
37 19
37 20
37 23
37 25
37 27
37 29
37 30
37 36
37 40
37 44
37 47
37 52
37 57
37 59
37 61
37 64
37 65
37 66
37 70
37 76
37 77
37 79
37 82
37 83
37 85
37 86
37 87
37 89
37 91
37 92
37 95
37 96
37 97
37 99
37 100
37 103
37 104
37 105
37 108
37 111
37 113
37 115
37 116
37 118
37 120
37 121
37 122
37 124
37 125
37 128
37 129
37 130
37 131
37 132
37 134
37 137
37 138
37 139
37 140
37 141
37 142
37 143
37 144
37 147
37 149
37 151
38 1
38 2
38 3
38 4
38 5
38 6
38 7
38 8
38 9
38 11
38 13
38 14
38 15
38 17
38 18
38 19
38 20
38 21
38 22
38 23
38 25
38 26
38 27
38 29
38 30
38 31
38 32
38 33
38 35
38 36
38 37
38 40
38 41
38 42
38 44
38 45
38 46
38 47
38 49
38 52
38 56
38 57
38 58
38 59
38 61
38 62
38 63
38 64
38 65
38 66
38 67
38 68
38 70
38 73
38 76
38 77
38 78
38 79
38 80
38 81
38 82
38 83
38 85
38 86
38 87
38 89
38 92
38 93
38 95
38 96
38 97
38 98
38 99
38 100
38 102
38 103
38 104
38 105
38 106
38 108
38 110
38 111
38 112
38 113
38 115
38 116
38 118
38 121
38 122
38 123
38 124
38 125
38 126
38 127
38 128
38 129
38 130
38 131
38 132
38 133
38 134
38 135
38 137
38 138
38 139
38 140
38 141
38 142
38 143
38 144
38 145
38 147
38 148
38 150
38 151
39 1
39 2
39 3
39 4
39 5
39 6
39 8
39 9
39 11
39 15
39 18
39 19
39 21
39 22
39 23
39 27
39 29
39 31
39 36
39 40
39 42
39 44
39 46
39 47
39 49
39 52
39 56
39 57
39 61
39 62
39 64
39 65
39 66
39 67
39 70
39 78
39 79
39 80
39 83
39 85
39 86
39 87
39 91
39 95
39 96
39 97
39 98
39 99
39 100
39 102
39 103
39 104
39 105
39 108
39 111
39 113
39 115
39 116
39 118
39 120
39 122
39 123
39 125
39 128
39 130
39 131
39 132
39 134
39 137
39 139
39 141
39 142
39 143
39 144
39 147
39 148
39 149
39 151
40 42
40 52
40 56
40 59
40 61
40 63
40 64
40 65
40 80
40 83
40 85
40 89
40 91
40 92
40 97
40 98
40 100
40 102
40 104
40 108
40 111
40 113
40 115
40 118
40 120
40 121
40 124
40 125
40 129
40 130
40 132
40 134
40 137
40 138
40 139
40 140
40 142
40 149
40 151
41 1
41 2
41 5
41 7
41 8
41 9
41 11
41 13
41 14
41 15
41 16
41 18
41 19
41 21
41 22
41 23
41 25
41 27
41 29
41 30
41 31
41 32
41 33
41 36
41 37
41 40
41 42
41 44
41 45
41 46
41 47
41 49
41 52
41 56
41 57
41 58
41 59
41 61
41 62
41 63
41 64
41 65
41 66
41 67
41 70
41 76
41 77
41 78
41 79
41 81
41 82
41 83
41 85
41 87
41 89
41 91
41 92
41 95
41 96
41 97
41 98
41 99
41 100
41 102
41 103
41 104
41 105
41 106
41 108
41 110
41 111
41 113
41 115
41 116
41 118
41 120
41 121
41 123
41 124
41 125
41 127
41 129
41 131
41 132
41 134
41 139
41 140
41 142
41 143
41 144
41 147
41 148
41 149
41 151
42 44
42 45
42 46
42 47
42 52
42 56
42 57
42 59
42 61
42 62
42 63
42 65
42 66
42 67
42 70
42 78
42 79
42 80
42 82
42 83
42 85
42 86
42 87
42 89
42 91
42 96
42 98
42 99
42 102
42 103
42 104
42 105
42 111
42 113
42 115
42 116
42 118
42 120
42 121
42 122
42 123
42 124
42 125
42 128
42 129
42 131
42 132
42 137
42 139
42 140
42 141
42 143
42 144
42 147
42 148
42 149
42 151
42 177
43 1
43 2
43 3
43 4
43 5
43 6
43 8
43 9
43 11
43 14
43 16
43 18
43 19
43 20
43 21
43 22
43 23
43 25
43 27
43 29
43 31
43 33
43 36
43 42
43 44
43 45
43 46
43 47
43 49
43 52
43 56
43 57
43 61
43 62
43 63
43 64
43 65
43 66
43 67
43 70
43 78
43 79
43 82
43 83
43 85
43 86
43 87
43 89
43 91
43 92
43 95
43 96
43 97
43 98
43 99
43 100
43 102
43 104
43 105
43 108
43 111
43 113
43 115
43 118
43 120
43 123
43 124
43 125
43 128
43 129
43 130
43 131
43 132
43 134
43 137
43 138
43 140
43 141
43 142
43 143
43 144
43 147
43 148
43 149
43 151
44 45
44 47
44 52
44 56
44 57
44 59
44 61
44 63
44 64
44 66
44 67
44 78
44 79
44 82
44 85
44 87
44 91
44 92
44 95
44 97
44 98
44 100
44 102
44 104
44 105
44 108
44 111
44 113
44 116
44 118
44 120
44 121
44 123
44 125
44 128
44 129
44 130
44 131
44 132
44 134
44 137
44 140
44 141
44 142
44 143
44 144
44 147
44 148
44 149
44 151
45 46
45 47
45 49
45 52
45 56
45 59
45 61
45 62
45 63
45 64
45 65
45 67
45 70
45 78
45 80
45 82
45 83
45 85
45 86
45 87
45 89
45 91
45 95
45 96
45 97
45 98
45 99
45 102
45 111
45 118
45 121
45 122
45 123
45 124
45 125
45 129
45 130
45 131
45 132
45 134
45 138
45 140
45 141
45 143
45 144
45 148
45 149
45 151
45 179
46 49
46 52
46 56
46 62
46 63
46 64
46 65
46 67
46 70
46 78
46 79
46 82
46 83
46 85
46 86
46 87
46 89
46 91
46 92
46 95
46 97
46 98
46 99
46 100
46 102
46 103
46 105
46 111
46 113
46 115
46 116
46 118
46 123
46 125
46 128
46 129
46 131
46 132
46 137
46 138
46 139
46 140
46 141
46 142
46 143
46 144
46 148
46 149
46 151
47 49
47 52
47 56
47 59
47 61
47 62
47 64
47 65
47 66
47 67
47 70
47 78
47 79
47 83
47 85
47 86
47 87
47 89
47 91
47 95
47 96
47 98
47 99
47 100
47 102
47 103
47 104
47 105
47 108
47 113
47 115
47 116
47 118
47 120
47 125
47 130
47 131
47 138
47 139
47 141
47 143
47 144
47 147
47 148
47 149
47 151
47 181
48 1
48 2
48 3
48 4
48 5
48 6
48 7
48 8
48 9
48 11
48 13
48 14
48 15
48 16
48 18
48 19
48 20
48 21
48 22
48 23
48 25
48 27
48 29
48 30
48 31
48 32
48 33
48 36
48 37
48 40
48 41
48 44
48 45
48 46
48 47
48 49
48 52
48 56
48 57
48 58
48 61
48 62
48 63
48 64
48 65
48 66
48 67
48 68
48 70
48 77
48 78
48 80
48 81
48 82
48 85
48 86
48 87
48 89
48 91
48 92
48 95
48 96
48 97
48 98
48 99
48 100
48 102
48 103
48 104
48 105
48 106
48 108
48 109
48 110
48 111
48 113
48 115
48 118
48 120
48 121
48 123
48 124
48 125
48 126
48 127
48 128
48 129
48 130
48 131
48 132
48 133
48 134
48 137
48 138
48 139
48 140
48 141
48 142
48 143
48 144
48 145
48 147
48 148
48 149
48 151
49 52
49 56
49 57
49 59
49 61
49 62
49 63
49 65
49 66
49 78
49 79
49 82
49 83
49 86
49 87
49 89
49 92
49 96
49 98
49 99
49 100
49 104
49 105
49 111
49 118
49 121
49 124
49 125
49 128
49 130
49 131
49 132
49 138
49 139
49 140
49 141
49 142
49 143
49 151
50 1
50 4
50 5
50 6
50 7
50 8
50 9
50 11
50 13
50 14
50 15
50 18
50 19
50 20
50 21
50 22
50 23
50 25
50 27
50 29
50 30
50 31
50 32
50 33
50 36
50 37
50 40
50 41
50 44
50 45
50 46
50 47
50 49
50 52
50 56
50 58
50 61
50 62
50 63
50 64
50 65
50 66
50 67
50 70
50 73
50 76
50 77
50 78
50 79
50 80
50 81
50 82
50 83
50 85
50 86
50 87
50 89
50 91
50 95
50 97
50 98
50 99
50 100
50 103
50 104
50 105
50 106
50 108
50 111
50 113
50 115
50 116
50 118
50 121
50 122
50 123
50 124
50 125
50 127
50 130
50 131
50 132
50 134
50 138
50 139
50 140
50 141
50 142
50 143
50 144
50 145
50 147
50 148
50 149
50 151
51 1
51 2
51 4
51 5
51 6
51 8
51 9
51 11
51 13
51 14
51 15
51 16
51 18
51 19
51 20
51 21
51 22
51 23
51 27
51 29
51 30
51 31
51 33
51 36
51 40
51 42
51 45
51 46
51 47
51 49
51 52
51 56
51 57
51 59
51 61
51 62
51 64
51 65
51 66
51 67
51 76
51 77
51 78
51 79
51 80
51 82
51 85
51 87
51 89
51 91
51 95
51 96
51 98
51 99
51 100
51 102
51 103
51 104
51 105
51 108
51 111
51 113
51 115
51 118
51 120
51 121
51 122
51 123
51 124
51 125
51 128
51 129
51 130
51 131
51 137
51 138
51 139
51 140
51 141
51 142
51 143
51 144
51 147
51 148
51 149
51 151
52 56
52 57
52 59
52 61
52 63
52 64
52 65
52 66
52 70
52 78
52 80
52 82
52 85
52 86
52 87
52 89
52 91
52 92
52 95
52 96
52 98
52 99
52 100
52 102
52 105
52 108
52 111
52 113
52 115
52 116
52 120
52 121
52 124
52 128
52 129
52 130
52 131
52 134
52 137
52 138
52 139
52 141
52 143
52 144
52 147
52 148
52 149
52 151
52 183
53 1
53 3
53 4
53 5
53 6
53 7
53 8
53 9
53 11
53 13
53 14
53 16
53 18
53 19
53 20
53 21
53 22
53 23
53 27
53 29
53 30
53 31
53 33
53 36
53 37
53 40
53 41
53 42
53 44
53 45
53 46
53 47
53 57
53 58
53 59
53 63
53 64
53 65
53 66
53 68
53 70
53 73
53 76
53 77
53 78
53 79
53 80
53 81
53 82
53 83
53 85
53 86
53 89
53 91
53 92
53 95
53 96
53 98
53 99
53 100
53 102
53 103
53 104
53 105
53 110
53 111
53 113
53 115
53 118
53 120
53 121
53 122
53 123
53 124
53 126
53 127
53 128
53 130
53 131
53 132
53 133
53 134
53 137
53 138
53 139
53 140
53 142
53 143
53 145
53 147
53 149
53 151
54 2
54 3
54 4
54 5
54 6
54 8
54 9
54 11
54 14
54 15
54 16
54 20
54 21
54 22
54 25
54 27
54 29
54 31
54 33
54 36
54 40
54 42
54 44
54 46
54 49
54 52
54 56
54 57
54 59
54 61
54 62
54 63
54 64
54 65
54 66
54 67
54 76
54 77
54 78
54 79
54 80
54 81
54 82
54 83
54 85
54 86
54 87
54 89
54 92
54 95
54 96
54 97
54 98
54 100
54 102
54 104
54 105
54 108
54 111
54 113
54 115
54 116
54 118
54 120
54 121
54 123
54 124
54 125
54 128
54 129
54 130
54 131
54 132
54 134
54 137
54 138
54 139
54 140
54 141
54 142
54 143
54 144
54 147
54 148
54 149
54 151
55 1
55 3
55 6
55 8
55 9
55 13
55 15
55 16
55 18
55 19
55 20
55 21
55 22
55 23
55 25
55 27
55 29
55 30
55 31
55 32
55 33
55 36
55 37
55 42
55 44
55 45
55 46
55 47
55 49
55 52
55 56
55 57
55 58
55 59
55 61
55 62
55 63
55 64
55 65
55 66
55 67
55 70
55 76
55 77
55 78
55 79
55 81
55 82
55 83
55 85
55 86
55 89
55 91
55 92
55 95
55 99
55 100
55 102
55 104
55 105
55 108
55 110
55 113
55 115
55 116
55 118
55 120
55 121
55 122
55 123
55 124
55 125
55 128
55 130
55 131
55 132
55 134
55 137
55 138
55 139
55 140
55 141
55 144
55 147
55 148
55 151
56 59
56 62
56 63
56 64
56 65
56 66
56 67
56 70
56 78
56 79
56 82
56 83
56 86
56 87
56 89
56 91
56 92
56 95
56 96
56 97
56 98
56 99
56 100
56 103
56 104
56 105
56 108
56 111
56 116
56 118
56 121
56 122
56 123
56 128
56 129
56 134
56 137
56 139
56 140
56 141
56 142
56 144
56 147
56 148
56 149
56 151
57 61
57 62
57 63
57 64
57 65
57 67
57 70
57 78
57 79
57 83
57 87
57 91
57 95
57 96
57 99
57 100
57 102
57 103
57 104
57 108
57 111
57 113
57 115
57 120
57 121
57 122
57 125
57 128
57 129
57 130
57 131
57 132
57 134
57 137
57 139
57 140
57 141
57 143
57 144
57 147
57 148
57 149
57 151
57 185
58 1
58 2
58 3
58 5
58 8
58 11
58 15
58 16
58 19
58 20
58 21
58 22
58 27
58 30
58 32
58 33
58 37
58 40
58 42
58 45
58 47
58 49
58 52
58 56
58 57
58 59
58 62
58 63
58 65
58 66
58 70
58 76
58 78
58 80
58 81
58 82
58 86
58 92
58 97
58 99
58 102
58 104
58 108
58 110
58 111
58 115
58 118
58 120
58 122
58 123
58 125
58 129
58 130
58 131
58 132
58 134
58 137
58 138
58 139
58 140
58 141
58 143
58 144
58 147
58 148
58 149
58 151
59 61
59 62
59 63
59 64
59 65
59 67
59 70
59 78
59 79
59 82
59 83
59 86
59 87
59 89
59 91
59 92
59 95
59 96
59 97
59 99
59 100
59 102
59 103
59 105
59 111
59 113
59 115
59 116
59 118
59 120
59 122
59 123
59 124
59 128
59 129
59 130
59 131
59 132
59 134
59 137
59 138
59 139
59 140
59 142
59 143
59 144
59 147
59 148
59 149
59 151
60 1
60 2
60 3
60 9
60 11
60 14
60 15
60 19
60 20
60 21
60 22
60 27
60 29
60 30
60 33
60 37
60 40
60 42
60 44
60 45
60 46
60 47
60 49
60 56
60 57
60 58
60 59
60 62
60 63
60 64
60 65
60 66
60 67
60 70
60 73
60 76
60 77
60 78
60 79
60 80
60 81
60 82
60 83
60 85
60 86
60 87
60 92
60 95
60 96
60 97
60 98
60 99
60 100
60 102
60 103
60 104
60 105
60 106
60 108
60 113
60 115
60 116
60 123
60 124
60 126
60 127
60 129
60 130
60 131
60 132
60 137
60 138
60 139
60 140
60 141
60 142
60 143
60 145
60 149
60 151
61 62
61 63
61 64
61 65
61 67
61 70
61 78
61 79
61 80
61 82
61 83
61 85
61 86
61 87
61 91
61 92
61 95
61 96
61 98
61 99
61 100
61 102
61 103
61 105
61 108
61 111
61 115
61 118
61 120
61 123
61 124
61 125
61 129
61 130
61 131
61 134
61 137
61 138
61 140
61 141
61 142
61 147
61 149
61 151
61 187
62 63
62 64
62 65
62 66
62 67
62 70
62 78
62 80
62 82
62 83
62 85
62 86
62 87
62 89
62 91
62 92
62 95
62 96
62 97
62 98
62 102
62 105
62 108
62 111
62 113
62 118
62 122
62 129
62 130
62 132
62 134
62 140
62 141
62 142
62 143
62 144
62 147
62 149
62 151
63 64
63 65
63 66
63 67
63 70
63 78
63 79
63 80
63 83
63 85
63 86
63 87
63 89
63 92
63 95
63 96
63 97
63 98
63 99
63 100
63 103
63 104
63 105
63 108
63 111
63 113
63 118
63 120
63 122
63 124
63 128
63 130
63 132
63 137
63 138
63 139
63 141
63 142
63 144
63 147
63 148
63 149
63 151
63 189
64 65
64 66
64 70
64 78
64 80
64 82
64 85
64 86
64 87
64 91
64 96
64 97
64 98
64 99
64 100
64 103
64 104
64 113
64 115
64 118
64 120
64 121
64 122
64 123
64 124
64 125
64 129
64 130
64 131
64 134
64 137
64 138
64 141
64 143
64 144
64 147
64 148
64 149
64 151
65 66
65 67
65 78
65 79
65 80
65 82
65 83
65 86
65 87
65 91
65 92
65 96
65 97
65 98
65 99
65 100
65 102
65 103
65 104
65 105
65 108
65 111
65 113
65 115
65 116
65 118
65 120
65 121
65 122
65 124
65 125
65 128
65 129
65 130
65 131
65 132
65 137
65 139
65 141
65 144
65 147
65 149
65 151
65 191
66 67
66 70
66 78
66 80
66 82
66 85
66 86
66 87
66 91
66 92
66 95
66 98
66 100
66 103
66 104
66 111
66 113
66 115
66 116
66 118
66 122
66 123
66 125
66 129
66 130
66 131
66 132
66 134
66 137
66 138
66 139
66 140
66 141
66 142
66 147
66 149
66 151
67 70
67 78
67 79
67 80
67 82
67 83
67 85
67 87
67 89
67 91
67 95
67 96
67 97
67 98
67 99
67 102
67 103
67 104
67 105
67 108
67 116
67 118
67 121
67 122
67 124
67 125
67 128
67 129
67 130
67 131
67 132
67 139
67 140
67 149
67 151
67 193
68 1
68 2
68 5
68 6
68 7
68 8
68 9
68 11
68 14
68 15
68 16
68 20
68 21
68 22
68 23
68 25
68 27
68 29
68 30
68 31
68 32
68 33
68 36
68 37
68 40
68 41
68 42
68 44
68 45
68 46
68 52
68 56
68 57
68 58
68 59
68 61
68 62
68 63
68 65
68 66
68 70
68 73
68 75
68 76
68 77
68 78
68 79
68 80
68 81
68 85
68 87
68 89
68 91
68 92
68 95
68 96
68 97
68 99
68 100
68 103
68 104
68 105
68 106
68 108
68 110
68 111
68 113
68 115
68 118
68 120
68 122
68 123
68 124
68 125
68 127
68 128
68 129
68 130
68 131
68 132
68 137
68 138
68 139
68 140
68 142
68 143
68 147
68 148
68 149
68 151
69 1
69 2
69 3
69 5
69 6
69 7
69 8
69 9
69 11
69 13
69 14
69 15
69 16
69 17
69 18
69 19
69 21
69 23
69 25
69 27
69 29
69 30
69 32
69 33
69 36
69 37
69 40
69 41
69 42
69 44
69 45
69 47
69 49
69 53
69 56
69 57
69 58
69 59
69 61
69 62
69 63
69 65
69 66
69 67
69 68
69 70
69 73
69 77
69 79
69 80
69 81
69 83
69 85
69 86
69 87
69 89
69 91
69 92
69 95
69 96
69 97
69 98
69 99
69 100
69 102
69 103
69 104
69 105
69 106
69 110
69 111
69 112
69 113
69 115
69 116
69 118
69 120
69 121
69 122
69 123
69 124
69 125
69 126
69 127
69 128
69 129
69 130
69 131
69 133
69 134
69 135
69 137
69 138
69 139
69 141
69 142
69 143
69 145
69 147
69 148
69 149
69 150
69 151
70 85
70 86
70 87
70 89
70 91
70 92
70 95
70 96
70 97
70 98
70 99
70 102
70 104
70 105
70 108
70 111
70 113
70 115
70 118
70 120
70 121
70 122
70 124
70 125
70 128
70 129
70 130
70 131
70 132
70 134
70 137
70 138
70 139
70 140
70 141
70 143
70 144
70 147
70 148
70 149
70 151
71 2
71 4
71 5
71 6
71 9
71 11
71 13
71 14
71 19
71 21
71 22
71 23
71 25
71 27
71 30
71 31
71 32
71 36
71 37
71 40
71 44
71 45
71 46
71 47
71 49
71 56
71 59
71 63
71 65
71 66
71 67
71 70
71 77
71 78
71 79
71 81
71 82
71 83
71 85
71 87
71 91
71 92
71 95
71 96
71 97
71 100
71 102
71 103
71 105
71 111
71 113
71 115
71 118
71 120
71 121
71 122
71 124
71 125
71 129
71 130
71 134
71 137
71 138
71 140
71 141
71 142
71 147
71 149
71 151
72 1
72 2
72 3
72 4
72 5
72 6
72 9
72 13
72 14
72 15
72 16
72 19
72 20
72 21
72 22
72 23
72 25
72 31
72 36
72 40
72 42
72 44
72 47
72 49
72 52
72 56
72 57
72 59
72 62
72 63
72 64
72 65
72 66
72 70
72 76
72 77
72 78
72 79
72 80
72 82
72 83
72 85
72 86
72 87
72 89
72 91
72 92
72 95
72 96
72 98
72 99
72 100
72 102
72 103
72 104
72 105
72 108
72 111
72 113
72 115
72 116
72 118
72 120
72 121
72 122
72 123
72 124
72 125
72 128
72 129
72 130
72 131
72 132
72 134
72 137
72 138
72 139
72 140
72 142
72 143
72 144
72 147
72 148
72 149
72 151
73 2
73 3
73 4
73 5
73 6
73 7
73 8
73 9
73 14
73 15
73 16
73 18
73 19
73 20
73 22
73 23
73 29
73 31
73 32
73 33
73 36
73 37
73 42
73 44
73 45
73 47
73 56
73 57
73 59
73 61
73 65
73 66
73 70
73 77
73 79
73 80
73 81
73 82
73 86
73 87
73 89
73 95
73 97
73 99
73 100
73 103
73 105
73 108
73 111
73 115
73 117
73 118
73 120
73 125
73 127
73 128
73 129
73 130
73 132
73 134
73 138
73 139
73 143
73 147
73 148
73 149
73 151
74 1
74 2
74 3
74 4
74 5
74 8
74 9
74 13
74 14
74 15
74 16
74 18
74 19
74 21
74 22
74 23
74 27
74 29
74 31
74 32
74 33
74 36
74 37
74 40
74 42
74 44
74 45
74 46
74 47
74 52
74 56
74 57
74 58
74 59
74 61
74 62
74 63
74 64
74 66
74 67
74 76
74 77
74 78
74 79
74 80
74 82
74 86
74 87
74 89
74 91
74 92
74 95
74 96
74 97
74 100
74 102
74 103
74 104
74 105
74 106
74 108
74 110
74 111
74 113
74 115
74 116
74 118
74 121
74 122
74 124
74 125
74 128
74 130
74 131
74 132
74 134
74 137
74 138
74 139
74 141
74 142
74 143
74 148
74 149
74 151
75 1
75 3
75 4
75 5
75 7
75 8
75 9
75 11
75 13
75 16
75 18
75 19
75 21
75 22
75 23
75 27
75 31
75 33
75 36
75 44
75 45
75 46
75 47
75 49
75 52
75 56
75 57
75 58
75 59
75 63
75 64
75 65
75 66
75 67
75 70
75 73
75 76
75 79
75 80
75 82
75 83
75 85
75 87
75 89
75 91
75 96
75 98
75 99
75 100
75 102
75 103
75 104
75 105
75 106
75 108
75 111
75 113
75 115
75 118
75 121
75 123
75 124
75 125
75 127
75 129
75 130
75 131
75 132
75 137
75 138
75 140
75 141
75 142
75 144
75 147
75 148
75 149
75 151
76 2
76 4
76 5
76 8
76 11
76 15
76 16
76 21
76 22
76 23
76 27
76 45
76 46
76 47
76 52
76 57
76 59
76 63
76 64
76 67
76 83
76 85
76 86
76 89
76 91
76 92
76 98
76 99
76 100
76 103
76 104
76 111
76 113
76 115
76 116
76 123
76 124
76 129
76 131
76 132
76 134
76 138
76 139
76 140
76 147
76 148
76 149
76 151
77 1
77 2
77 3
77 4
77 5
77 6
77 8
77 9
77 11
77 14
77 15
77 16
77 18
77 19
77 20
77 21
77 22
77 23
77 25
77 27
77 29
77 33
77 40
77 42
77 43
77 44
77 45
77 46
77 47
77 49
77 52
77 56
77 57
77 59
77 63
77 64
77 66
77 70
77 78
77 79
77 80
77 82
77 83
77 85
77 86
77 87
77 89
77 91
77 92
77 96
77 97
77 98
77 100
77 102
77 104
77 105
77 108
77 111
77 115
77 118
77 120
77 123
77 124
77 125
77 128
77 129
77 130
77 131
77 132
77 134
77 137
77 138
77 139
77 140
77 141
77 142
77 144
77 147
77 148
77 149
77 151
78 79
78 80
78 82
78 83
78 85
78 86
78 91
78 95
78 96
78 97
78 98
78 100
78 102
78 103
78 105
78 108
78 111
78 113
78 120
78 121
78 122
78 123
78 129
78 130
78 131
78 132
78 134
78 137
78 138
78 139
78 140
78 142
78 143
78 144
78 147
78 148
78 149
78 151
78 195
79 80
79 82
79 85
79 86
79 87
79 89
79 91
79 92
79 95
79 96
79 98
79 99
79 100
79 102
79 104
79 108
79 111
79 113
79 116
79 118
79 121
79 123
79 125
79 129
79 130
79 132
79 137
79 140
79 141
79 142
79 143
79 147
79 148
79 149
79 151
80 85
80 87
80 89
80 91
80 95
80 96
80 97
80 102
80 104
80 111
80 113
80 115
80 116
80 118
80 120
80 123
80 129
80 130
80 131
80 134
80 138
80 139
80 141
80 142
80 143
80 144
80 147
80 149
80 151
80 197
81 1
81 2
81 3
81 5
81 6
81 8
81 9
81 11
81 13
81 14
81 15
81 16
81 18
81 19
81 20
81 21
81 22
81 23
81 25
81 27
81 29
81 30
81 31
81 33
81 36
81 42
81 44
81 45
81 46
81 47
81 52
81 56
81 57
81 59
81 61
81 62
81 63
81 66
81 70
81 76
81 77
81 78
81 79
81 80
81 82
81 85
81 86
81 87
81 89
81 91
81 92
81 95
81 96
81 98
81 99
81 100
81 102
81 103
81 104
81 105
81 111
81 113
81 115
81 116
81 120
81 121
81 122
81 123
81 125
81 128
81 129
81 130
81 132
81 134
81 137
81 138
81 140
81 141
81 142
81 143
81 144
81 147
81 148
81 149
81 151
82 83
82 85
82 87
82 92
82 95
82 97
82 99
82 100
82 103
82 104
82 105
82 108
82 111
82 113
82 115
82 121
82 123
82 124
82 125
82 129
82 130
82 131
82 137
82 139
82 141
82 142
82 144
82 147
82 149
82 151
83 85
83 87
83 89
83 91
83 92
83 96
83 97
83 98
83 99
83 100
83 103
83 105
83 108
83 116
83 118
83 121
83 123
83 130
83 131
83 132
83 134
83 137
83 138
83 140
83 141
83 144
83 148
83 149
83 151
83 199
84 1
84 2
84 3
84 4
84 5
84 7
84 8
84 9
84 11
84 12
84 13
84 14
84 15
84 16
84 17
84 18
84 19
84 21
84 22
84 25
84 26
84 27
84 29
84 30
84 31
84 32
84 33
84 35
84 36
84 37
84 40
84 41
84 42
84 44
84 45
84 46
84 47
84 49
84 52
84 53
84 56
84 57
84 58
84 59
84 61
84 62
84 63
84 65
84 66
84 67
84 68
84 70
84 73
84 76
84 77
84 78
84 79
84 80
84 81
84 82
84 83
84 85
84 86
84 87
84 89
84 91
84 92
84 93
84 95
84 96
84 97
84 98
84 99
84 100
84 102
84 103
84 104
84 105
84 106
84 108
84 110
84 111
84 113
84 115
84 116
84 118
84 121
84 123
84 124
84 125
84 126
84 127
84 128
84 129
84 130
84 131
84 134
84 135
84 137
84 138
84 139
84 140
84 141
84 142
84 143
84 144
84 145
84 147
84 149
84 150
84 151
85 87
85 89
85 91
85 92
85 96
85 97
85 98
85 99
85 102
85 104
85 105
85 108
85 111
85 115
85 116
85 118
85 120
85 122
85 123
85 124
85 125
85 128
85 129
85 130
85 131
85 134
85 138
85 139
85 141
85 142
85 144
85 147
85 148
85 151
86 89
86 92
86 95
86 96
86 97
86 98
86 99
86 102
86 103
86 111
86 113
86 115
86 116
86 118
86 121
86 122
86 123
86 124
86 125
86 129
86 130
86 131
86 132
86 137
86 138
86 139
86 142
86 144
86 148
86 149
86 151
86 201
87 89
87 91
87 92
87 95
87 99
87 100
87 102
87 103
87 104
87 105
87 111
87 113
87 115
87 116
87 118
87 120
87 121
87 123
87 124
87 125
87 129
87 130
87 131
87 132
87 134
87 139
87 140
87 141
87 142
87 143
87 144
87 148
87 149
87 151
88 1
88 2
88 4
88 5
88 8
88 9
88 13
88 14
88 15
88 16
88 18
88 19
88 20
88 21
88 22
88 23
88 29
88 30
88 31
88 33
88 36
88 40
88 42
88 44
88 45
88 46
88 49
88 52
88 56
88 57
88 59
88 61
88 63
88 64
88 65
88 66
88 76
88 77
88 78
88 79
88 82
88 83
88 85
88 87
88 89
88 91
88 92
88 95
88 96
88 97
88 98
88 99
88 100
88 102
88 103
88 104
88 105
88 108
88 115
88 120
88 125
88 129
88 130
88 131
88 132
88 134
88 137
88 138
88 139
88 141
88 143
88 144
88 147
88 148
88 149
88 151
89 91
89 92
89 95
89 97
89 98
89 99
89 100
89 102
89 103
89 104
89 105
89 108
89 111
89 113
89 115
89 116
89 121
89 122
89 123
89 128
89 129
89 132
89 134
89 139
89 140
89 141
89 142
89 143
89 147
89 148
89 149
89 151
89 203
90 1
90 2
90 3
90 4
90 6
90 8
90 9
90 14
90 15
90 18
90 22
90 23
90 25
90 27
90 29
90 31
90 33
90 36
90 40
90 42
90 45
90 46
90 47
90 49
90 52
90 56
90 61
90 62
90 63
90 64
90 65
90 70
90 76
90 77
90 80
90 82
90 83
90 85
90 86
90 87
90 89
90 91
90 96
90 97
90 99
90 102
90 103
90 104
90 105
90 108
90 111
90 113
90 115
90 116
90 118
90 120
90 122
90 124
90 125
90 129
90 130
90 131
90 132
90 134
90 137
90 139
90 140
90 141
90 142
90 143
90 144
90 147
90 149
90 151
91 92
91 95
91 96
91 98
91 99
91 100
91 102
91 103
91 104
91 105
91 108
91 111
91 115
91 116
91 118
91 121
91 122
91 123
91 125
91 128
91 129
91 130
91 132
91 137
91 138
91 139
91 141
91 143
91 144
91 147
91 151
92 95
92 99
92 100
92 102
92 103
92 111
92 113
92 118
92 120
92 121
92 123
92 125
92 129
92 130
92 132
92 134
92 137
92 139
92 140
92 141
92 142
92 143
92 148
92 151
92 205
93 1
93 3
93 4
93 5
93 6
93 7
93 8
93 9
93 11
93 13
93 14
93 15
93 16
93 17
93 18
93 19
93 20
93 21
93 22
93 23
93 25
93 26
93 27
93 30
93 31
93 32
93 33
93 35
93 36
93 37
93 40
93 41
93 42
93 44
93 45
93 46
93 47
93 49
93 52
93 53
93 56
93 57
93 58
93 59
93 61
93 62
93 63
93 64
93 65
93 66
93 67
93 68
93 70
93 73
93 76
93 77
93 78
93 79
93 80
93 81
93 82
93 83
93 85
93 86
93 87
93 89
93 91
93 92
93 95
93 96
93 97
93 98
93 99
93 100
93 102
93 103
93 104
93 105
93 106
93 108
93 110
93 111
93 112
93 113
93 115
93 116
93 118
93 120
93 121
93 122
93 123
93 124
93 125
93 126
93 127
93 128
93 129
93 130
93 131
93 132
93 133
93 134
93 135
93 137
93 138
93 139
93 140
93 142
93 143
93 144
93 145
93 147
93 148
93 149
93 150
93 151
94 1
94 2
94 5
94 6
94 9
94 14
94 15
94 16
94 18
94 19
94 22
94 23
94 27
94 30
94 31
94 33
94 40
94 42
94 44
94 45
94 46
94 47
94 49
94 56
94 57
94 58
94 59
94 61
94 63
94 64
94 65
94 67
94 70
94 74
94 77
94 79
94 80
94 81
94 83
94 85
94 86
94 89
94 92
94 95
94 96
94 97
94 98
94 100
94 103
94 104
94 105
94 111
94 118
94 120
94 124
94 125
94 127
94 128
94 129
94 130
94 131
94 132
94 138
94 139
94 140
94 141
94 142
94 143
94 144
94 148
94 151
95 96
95 97
95 98
95 100
95 104
95 105
95 108
95 111
95 113
95 115
95 116
95 118
95 122
95 124
95 129
95 130
95 131
95 134
95 137
95 138
95 139
95 141
95 143
95 147
95 148
95 149
95 151
96 97
96 98
96 99
96 102
96 104
96 105
96 108
96 111
96 113
96 115
96 118
96 120
96 121
96 122
96 123
96 124
96 125
96 128
96 129
96 131
96 132
96 134
96 137
96 138
96 139
96 140
96 141
96 143
96 147
96 149
96 151
96 207
97 98
97 99
97 102
97 104
97 105
97 108
97 111
97 118
97 120
97 121
97 122
97 123
97 124
97 125
97 129
97 130
97 132
97 134
97 137
97 139
97 141
97 144
97 149
97 151
98 99
98 100
98 102
98 104
98 111
98 115
98 116
98 118
98 120
98 121
98 128
98 129
98 130
98 131
98 132
98 137
98 138
98 139
98 141
98 143
98 144
98 147
98 149
98 151
98 209
99 103
99 104
99 105
99 108
99 111
99 113
99 115
99 116
99 118
99 120
99 122
99 123
99 129
99 130
99 131
99 132
99 134
99 139
99 148
99 149
99 151
100 102
100 105
100 108
100 111
100 113
100 115
100 116
100 118
100 122
100 123
100 125
100 128
100 137
100 138
100 139
100 140
100 141
100 143
100 147
100 148
100 149
100 151
100 211
101 1
101 2
101 3
101 4
101 5
101 7
101 8
101 9
101 11
101 13
101 14
101 15
101 16
101 17
101 18
101 19
101 20
101 21
101 22
101 23
101 25
101 27
101 29
101 30
101 31
101 32
101 33
101 35
101 36
101 37
101 40
101 41
101 42
101 44
101 45
101 46
101 47
101 49
101 52
101 53
101 56
101 57
101 58
101 59
101 61
101 62
101 63
101 64
101 65
101 66
101 67
101 68
101 70
101 73
101 76
101 77
101 78
101 79
101 80
101 81
101 82
101 85
101 86
101 87
101 89
101 91
101 92
101 93
101 95
101 96
101 97
101 98
101 99
101 100
101 102
101 103
101 104
101 105
101 106
101 108
101 110
101 111
101 112
101 113
101 115
101 116
101 118
101 120
101 121
101 122
101 123
101 124
101 125
101 126
101 127
101 128
101 129
101 130
101 131
101 132
101 133
101 134
101 135
101 137
101 138
101 139
101 140
101 141
101 142
101 143
101 144
101 145
101 147
101 148
101 149
101 150
101 151
102 104
102 105
102 111
102 113
102 115
102 116
102 120
102 121
102 123
102 124
102 125
102 129
102 130
102 132
102 134
102 137
102 138
102 139
102 140
102 141
102 143
102 144
102 147
102 149
102 151
103 104
103 105
103 108
103 111
103 113
103 115
103 118
103 120
103 121
103 122
103 123
103 125
103 128
103 129
103 130
103 131
103 134
103 137
103 139
103 140
103 141
103 147
103 151
103 213
104 105
104 108
104 115
104 116
104 118
104 120
104 121
104 123
104 129
104 130
104 131
104 132
104 134
104 137
104 138
104 139
104 140
104 141
104 142
104 144
104 147
104 148
104 149
104 151
105 111
105 115
105 118
105 121
105 122
105 123
105 124
105 125
105 128
105 129
105 130
105 131
105 134
105 137
105 138
105 139
105 140
105 141
105 143
105 147
105 148
105 149
105 151
105 215
106 1
106 2
106 3
106 4
106 8
106 9
106 11
106 14
106 15
106 16
106 19
106 20
106 21
106 22
106 25
106 27
106 29
106 30
106 31
106 32
106 33
106 37
106 40
106 42
106 44
106 45
106 46
106 47
106 49
106 56
106 57
106 58
106 59
106 61
106 64
106 65
106 67
106 70
106 76
106 77
106 79
106 81
106 82
106 83
106 85
106 86
106 87
106 89
106 92
106 96
106 98
106 100
106 102
106 105
106 108
106 110
106 113
106 116
106 118
106 120
106 121
106 123
106 124
106 127
106 130
106 131
106 132
106 134
106 137
106 139
106 142
106 143
106 144
106 147
106 149
106 151
107 1
107 2
107 3
107 4
107 7
107 8
107 9
107 11
107 13
107 14
107 15
107 16
107 18
107 19
107 21
107 22
107 23
107 27
107 29
107 31
107 32
107 36
107 37
107 40
107 42
107 44
107 45
107 46
107 47
107 52
107 56
107 57
107 58
107 59
107 60
107 61
107 62
107 63
107 64
107 65
107 68
107 70
107 73
107 77
107 78
107 79
107 81
107 82
107 85
107 86
107 87
107 91
107 92
107 95
107 96
107 97
107 98
107 99
107 100
107 102
107 104
107 105
107 106
107 108
107 110
107 111
107 115
107 116
107 120
107 121
107 122
107 123
107 124
107 125
107 127
107 129
107 131
107 132
107 134
107 137
107 138
107 140
107 142
107 143
107 145
107 148
107 151
108 115
108 120
108 121
108 122
108 123
108 125
108 129
108 130
108 132
108 134
108 139
108 143
108 144
108 151
109 1
109 2
109 4
109 5
109 6
109 7
109 11
109 13
109 14
109 15
109 18
109 19
109 21
109 22
109 25
109 27
109 29
109 30
109 31
109 32
109 33
109 36
109 37
109 44
109 46
109 47
109 49
109 52
109 53
109 56
109 58
109 59
109 61
109 63
109 64
109 65
109 67
109 70
109 73
109 77
109 78
109 79
109 80
109 81
109 82
109 85
109 86
109 87
109 89
109 91
109 92
109 96
109 97
109 99
109 102
109 103
109 104
109 105
109 106
109 108
109 110
109 111
109 113
109 115
109 116
109 118
109 120
109 121
109 122
109 124
109 125
109 127
109 128
109 130
109 133
109 134
109 137
109 138
109 139
109 140
109 141
109 142
109 143
109 144
109 147
109 148
109 149
109 151
110 1
110 2
110 3
110 4
110 5
110 6
110 11
110 13
110 20
110 21
110 22
110 23
110 27
110 29
110 30
110 33
110 36
110 37
110 40
110 42
110 44
110 45
110 46
110 49
110 52
110 54
110 56
110 59
110 61
110 62
110 63
110 64
110 65
110 66
110 67
110 70
110 77
110 78
110 79
110 81
110 83
110 85
110 87
110 89
110 91
110 92
110 95
110 96
110 97
110 98
110 99
110 103
110 105
110 108
110 116
110 118
110 120
110 122
110 123
110 128
110 130
110 131
110 132
110 134
110 137
110 138
110 139
110 140
110 142
110 143
110 144
110 147
110 148
110 151
111 113
111 115
111 116
111 118
111 120
111 121
111 122
111 123
111 124
111 125
111 128
111 129
111 130
111 132
111 134
111 137
111 139
111 141
111 142
111 143
111 144
111 147
111 148
111 149
111 151
111 217
112 1
112 2
112 3
112 4
112 5
112 6
112 7
112 8
112 9
112 11
112 13
112 14
112 15
112 16
112 18
112 19
112 20
112 21
112 22
112 23
112 25
112 27
112 30
112 31
112 32
112 36
112 37
112 40
112 41
112 42
112 44
112 45
112 47
112 48
112 49
112 52
112 56
112 57
112 59
112 61
112 62
112 63
112 64
112 65
112 66
112 67
112 68
112 70
112 73
112 76
112 77
112 80
112 81
112 83
112 85
112 86
112 87
112 89
112 91
112 92
112 95
112 96
112 97
112 98
112 99
112 100
112 103
112 104
112 106
112 110
112 111
112 115
112 116
112 120
112 121
112 122
112 123
112 124
112 125
112 126
112 127
112 129
112 130
112 132
112 133
112 134
112 137
112 138
112 139
112 140
112 141
112 142
112 143
112 144
112 147
112 148
112 149
112 151
113 115
113 118
113 123
113 125
113 128
113 129
113 130
113 132
113 134
113 137
113 138
113 141
113 147
113 149
113 151
114 1
114 2
114 4
114 5
114 6
114 7
114 8
114 9
114 11
114 13
114 14
114 15
114 16
114 18
114 20
114 22
114 23
114 25
114 27
114 29
114 30
114 31
114 32
114 33
114 36
114 37
114 40
114 41
114 42
114 44
114 45
114 46
114 47
114 49
114 52
114 56
114 57
114 58
114 59
114 61
114 62
114 63
114 64
114 65
114 66
114 67
114 68
114 70
114 73
114 76
114 79
114 80
114 81
114 82
114 83
114 85
114 86
114 87
114 89
114 91
114 92
114 95
114 96
114 97
114 98
114 99
114 100
114 102
114 104
114 105
114 106
114 108
114 111
114 112
114 113
114 115
114 116
114 118
114 120
114 121
114 122
114 123
114 124
114 125
114 126
114 127
114 128
114 129
114 131
114 132
114 133
114 134
114 137
114 138
114 139
114 140
114 141
114 142
114 143
114 144
114 145
114 147
114 148
114 149
114 150
114 151
115 116
115 120
115 121
115 123
115 124
115 125
115 128
115 129
115 130
115 131
115 134
115 139
115 140
115 141
115 142
115 147
115 148
115 149
115 151
115 219
116 118
116 120
116 121
116 123
116 124
116 130
116 132
116 134
116 137
116 139
116 140
116 144
116 147
116 148
116 149
116 151
117 1
117 2
117 3
117 5
117 6
117 7
117 9
117 11
117 13
117 14
117 15
117 16
117 18
117 19
117 20
117 21
117 22
117 23
117 25
117 27
117 29
117 30
117 32
117 33
117 36
117 37
117 40
117 42
117 44
117 45
117 46
117 52
117 56
117 57
117 58
117 59
117 61
117 62
117 63
117 64
117 65
117 66
117 70
117 76
117 77
117 78
117 80
117 81
117 83
117 85
117 86
117 87
117 89
117 91
117 92
117 95
117 96
117 97
117 98
117 99
117 100
117 102
117 103
117 104
117 106
117 110
117 111
117 113
117 115
117 116
117 121
117 123
117 124
117 125
117 129
117 130
117 131
117 132
117 134
117 137
117 138
117 139
117 140
117 141
117 143
117 147
117 148
117 149
117 151
118 120
118 123
118 124
118 128
118 129
118 130
118 131
118 132
118 134
118 137
118 138
118 139
118 140
118 141
118 142
118 144
118 149
118 151
118 221
119 2
119 4
119 5
119 6
119 8
119 9
119 11
119 14
119 16
119 19
119 20
119 22
119 23
119 25
119 30
119 31
119 32
119 33
119 37
119 40
119 41
119 42
119 44
119 45
119 47
119 49
119 56
119 57
119 58
119 61
119 62
119 63
119 65
119 66
119 70
119 76
119 77
119 78
119 79
119 80
119 81
119 82
119 85
119 86
119 87
119 91
119 92
119 95
119 96
119 97
119 99
119 100
119 102
119 103
119 104
119 105
119 106
119 108
119 110
119 111
119 113
119 116
119 118
119 120
119 121
119 122
119 123
119 124
119 125
119 127
119 128
119 129
119 130
119 131
119 132
119 134
119 137
119 138
119 139
119 141
119 142
119 143
119 144
119 147
119 148
119 149
119 151
120 121
120 122
120 123
120 125
120 128
120 129
120 131
120 134
120 139
120 140
120 142
120 143
120 144
120 147
120 148
120 149
120 151
121 123
121 124
121 128
121 130
121 132
121 134
121 137
121 138
121 139
121 140
121 141
121 143
121 147
121 149
121 151
121 223
122 124
122 125
122 128
122 129
122 130
122 131
122 132
122 138
122 139
122 140
122 141
122 143
122 144
122 147
122 149
122 151
123 125
123 128
123 129
123 130
123 134
123 139
123 140
123 143
123 144
123 148
123 151
123 225
124 129
124 130
124 131
124 132
124 134
124 137
124 138
124 139
124 141
124 142
124 144
124 147
124 151
125 128
125 129
125 131
125 132
125 137
125 139
125 140
125 141
125 147
125 148
125 151
125 227
126 1
126 2
126 3
126 4
126 5
126 6
126 8
126 9
126 11
126 13
126 14
126 15
126 16
126 19
126 21
126 23
126 25
126 30
126 32
126 36
126 37
126 40
126 41
126 42
126 44
126 45
126 46
126 47
126 49
126 52
126 56
126 57
126 58
126 59
126 62
126 63
126 65
126 66
126 67
126 68
126 70
126 76
126 77
126 78
126 79
126 80
126 82
126 83
126 85
126 86
126 87
126 89
126 92
126 95
126 97
126 98
126 99
126 102
126 103
126 104
126 105
126 106
126 108
126 110
126 111
126 113
126 115
126 116
126 118
126 120
126 121
126 123
126 124
126 125
126 127
126 128
126 129
126 132
126 137
126 138
126 139
126 140
126 141
126 143
126 145
126 147
126 149
126 151
127 1
127 2
127 3
127 4
127 5
127 6
127 8
127 9
127 11
127 13
127 14
127 15
127 18
127 19
127 20
127 21
127 22
127 23
127 25
127 27
127 29
127 31
127 33
127 36
127 37
127 40
127 42
127 45
127 46
127 47
127 49
127 52
127 56
127 57
127 59
127 61
127 62
127 63
127 64
127 65
127 66
127 67
127 70
127 76
127 77
127 78
127 80
127 81
127 82
127 83
127 85
127 86
127 87
127 89
127 91
127 92
127 95
127 96
127 97
127 98
127 99
127 100
127 102
127 103
127 104
127 105
127 110
127 111
127 113
127 115
127 116
127 118
127 120
127 121
127 122
127 123
127 124
127 125
127 128
127 129
127 130
127 131
127 132
127 137
127 139
127 140
127 141
127 142
127 143
127 144
127 147
127 148
127 151
128 129
128 130
128 131
128 132
128 134
128 137
128 138
128 139
128 141
128 142
128 143
128 147
128 148
128 149
128 151
129 130
129 131
129 132
129 134
129 137
129 138
129 139
129 140
129 142
129 143
129 148
129 149
129 151
129 229
130 131
130 132
130 134
130 137
130 138
130 139
130 140
130 141
130 142
130 143
130 144
130 147
130 148
130 149
130 151
131 132
131 137
131 139
131 141
131 144
131 147
131 148
131 149
131 151
131 231
132 134
132 137
132 139
132 140
132 141
132 142
132 147
132 151
133 1
133 2
133 4
133 5
133 6
133 7
133 8
133 9
133 13
133 14
133 15
133 18
133 23
133 25
133 29
133 30
133 31
133 36
133 37
133 40
133 41
133 42
133 44
133 45
133 46
133 47
133 49
133 56
133 58
133 59
133 62
133 63
133 64
133 65
133 66
133 67
133 68
133 70
133 76
133 77
133 79
133 81
133 82
133 83
133 86
133 87
133 89
133 91
133 92
133 95
133 96
133 100
133 102
133 103
133 104
133 105
133 106
133 108
133 113
133 116
133 118
133 120
133 121
133 123
133 125
133 127
133 128
133 129
133 130
133 132
133 134
133 137
133 139
133 141
133 142
133 143
133 145
133 147
133 148
133 151
134 141
134 148
134 151
134 233
135 1
135 2
135 3
135 5
135 6
135 7
135 8
135 9
135 11
135 14
135 17
135 18
135 19
135 21
135 22
135 25
135 27
135 29
135 30
135 31
135 32
135 33
135 36
135 37
135 40
135 41
135 42
135 44
135 46
135 47
135 49
135 52
135 53
135 56
135 57
135 58
135 59
135 62
135 63
135 64
135 65
135 66
135 68
135 70
135 76
135 77
135 78
135 79
135 80
135 81
135 82
135 83
135 85
135 86
135 87
135 89
135 91
135 92
135 95
135 96
135 97
135 98
135 99
135 100
135 102
135 103
135 104
135 105
135 108
135 110
135 111
135 112
135 113
135 115
135 116
135 120
135 121
135 122
135 123
135 125
135 126
135 127
135 129
135 130
135 131
135 132
135 133
135 134
135 137
135 138
135 139
135 140
135 141
135 142
135 143
135 144
135 145
135 147
135 148
135 151
136 1
136 3
136 4
136 5
136 6
136 7
136 8
136 9
136 11
136 13
136 14
136 15
136 16
136 18
136 19
136 20
136 21
136 22
136 25
136 27
136 30
136 31
136 32
136 33
136 37
136 41
136 42
136 44
136 46
136 47
136 49
136 52
136 53
136 56
136 57
136 58
136 59
136 62
136 63
136 65
136 66
136 68
136 70
136 78
136 79
136 81
136 85
136 86
136 87
136 89
136 91
136 92
136 95
136 96
136 97
136 98
136 100
136 102
136 103
136 104
136 105
136 108
136 111
136 112
136 115
136 120
136 121
136 122
136 123
136 124
136 127
136 128
136 129
136 130
136 132
136 133
136 134
136 137
136 139
136 140
136 141
136 142
136 143
136 144
136 147
136 148
136 149
136 151
137 138
137 139
137 140
137 141
137 142
137 143
137 144
137 147
137 148
137 149
137 151
138 139
138 141
138 143
138 144
138 147
138 148
138 151
138 235
139 140
139 141
139 142
139 143
139 144
139 147
139 148
139 149
139 151
140 141
140 144
140 147
140 148
140 149
140 151
140 237
141 142
141 143
141 149
141 151
142 143
142 147
142 148
142 149
142 151
142 239
143 147
143 149
143 151
144 147
144 148
144 151
144 241
145 1
145 2
145 4
145 5
145 6
145 7
145 8
145 11
145 15
145 16
145 18
145 19
145 21
145 23
145 25
145 27
145 29
145 30
145 31
145 32
145 36
145 37
145 40
145 41
145 42
145 44
145 45
145 46
145 47
145 52
145 56
145 57
145 61
145 62
145 63
145 64
145 70
145 77
145 78
145 79
145 80
145 81
145 82
145 83
145 86
145 87
145 92
145 96
145 97
145 100
145 102
145 104
145 108
145 110
145 111
145 116
145 118
145 120
145 122
145 123
145 124
145 125
145 127
145 128
145 129
145 130
145 131
145 132
145 134
145 137
145 138
145 139
145 140
145 141
145 142
145 144
145 148
145 149
145 151
146 1
146 2
146 3
146 4
146 5
146 6
146 7
146 8
146 9
146 11
146 13
146 14
146 15
146 16
146 17
146 18
146 20
146 21
146 22
146 23
146 25
146 26
146 27
146 29
146 30
146 31
146 32
146 33
146 35
146 36
146 37
146 40
146 41
146 44
146 45
146 46
146 47
146 49
146 52
146 53
146 56
146 57
146 58
146 59
146 61
146 63
146 64
146 65
146 66
146 67
146 68
146 70
146 73
146 76
146 77
146 78
146 79
146 80
146 82
146 83
146 84
146 85
146 86
146 87
146 89
146 91
146 92
146 93
146 95
146 96
146 98
146 99
146 100
146 103
146 104
146 105
146 106
146 108
146 110
146 111
146 112
146 113
146 115
146 116
146 118
146 120
146 121
146 122
146 123
146 124
146 125
146 126
146 127
146 128
146 129
146 130
146 131
146 132
146 133
146 134
146 137
146 138
146 139
146 141
146 142
146 143
146 144
146 145
146 147
146 148
146 149
146 150
146 151
147 148
147 149
147 151
148 151
148 243
149 151
150 1
150 2
150 3
150 4
150 5
150 6
150 7
150 8
150 9
150 11
150 13
150 14
150 15
150 16
150 19
150 20
150 21
150 22
150 23
150 27
150 29
150 30
150 31
150 32
150 33
150 36
150 37
150 41
150 42
150 44
150 45
150 47
150 52
150 53
150 56
150 57
150 58
150 59
150 61
150 62
150 67
150 68
150 70
150 77
150 78
150 79
150 81
150 82
150 83
150 85
150 86
150 87
150 89
150 92
150 96
150 97
150 98
150 99
150 102
150 103
150 104
150 105
150 106
150 108
150 110
150 111
150 112
150 113
150 115
150 118
150 121
150 122
150 124
150 126
150 128
150 129
150 130
150 131
150 133
150 134
150 137
150 139
150 140
150 141
150 143
150 145
150 147
150 149
150 151
151 245
152 1
152 3
152 4
152 5
152 6
152 8
152 9
152 11
152 14
152 15
152 16
152 18
152 19
152 20
152 21
152 22
152 23
152 25
152 27
152 29
152 31
152 33
152 36
152 40
152 42
152 44
152 45
152 46
152 47
152 49
152 52
152 56
152 57
152 59
152 61
152 62
152 63
152 64
152 65
152 66
152 67
152 70
152 78
152 79
152 80
152 82
152 83
152 85
152 86
152 87
152 89
152 91
152 92
152 95
152 96
152 97
152 98
152 99
152 100
152 102
152 103
152 104
152 105
152 108
152 111
152 113
152 115
152 116
152 118
152 120
152 121
152 122
152 123
152 124
152 125
152 128
152 129
152 130
152 131
152 132
152 134
152 137
152 138
152 139
152 140
152 141
152 142
152 143
152 144
152 147
152 148
152 149
152 151
153 3
153 4
153 5
153 6
153 8
153 9
153 11
153 14
153 15
153 16
153 18
153 19
153 20
153 21
153 22
153 23
153 25
153 27
153 29
153 31
153 33
153 36
153 40
153 42
153 44
153 45
153 46
153 47
153 49
153 52
153 56
153 57
153 59
153 61
153 62
153 63
153 64
153 65
153 66
153 67
153 70
153 78
153 79
153 80
153 82
153 83
153 85
153 86
153 87
153 89
153 91
153 92
153 95
153 96
153 97
153 98
153 99
153 100
153 102
153 103
153 104
153 105
153 108
153 111
153 113
153 115
153 116
153 118
153 120
153 121
153 122
153 123
153 124
153 125
153 128
153 129
153 130
153 131
153 132
153 134
153 137
153 138
153 139
153 140
153 141
153 142
153 143
153 144
153 147
153 148
153 149
153 151
154 3
154 5
154 6
154 8
154 9
154 11
154 14
154 15
154 16
154 18
154 19
154 20
154 21
154 22
154 23
154 25
154 27
154 29
154 31
154 33
154 36
154 40
154 42
154 44
154 45
154 46
154 47
154 49
154 52
154 56
154 57
154 59
154 61
154 62
154 63
154 64
154 65
154 66
154 67
154 70
154 78
154 79
154 80
154 82
154 83
154 85
154 86
154 87
154 89
154 91
154 92
154 95
154 96
154 97
154 98
154 99
154 100
154 102
154 103
154 104
154 105
154 108
154 111
154 113
154 115
154 116
154 118
154 120
154 121
154 122
154 123
154 124
154 125
154 128
154 129
154 130
154 131
154 132
154 134
154 137
154 138
154 139
154 140
154 141
154 142
154 143
154 144
154 147
154 148
154 149
154 151
155 5
155 6
155 8
155 9
155 11
155 14
155 15
155 16
155 18
155 19
155 20
155 21
155 22
155 23
155 25
155 27
155 29
155 31
155 33
155 36
155 40
155 42
155 44
155 45
155 46
155 47
155 49
155 52
155 56
155 57
155 59
155 61
155 62
155 63
155 64
155 65
155 66
155 67
155 70
155 78
155 79
155 80
155 82
155 83
155 85
155 86
155 87
155 89
155 91
155 92
155 95
155 96
155 97
155 98
155 99
155 100
155 102
155 103
155 104
155 105
155 108
155 111
155 113
155 115
155 116
155 118
155 120
155 121
155 122
155 123
155 124
155 125
155 128
155 129
155 130
155 131
155 132
155 134
155 137
155 138
155 139
155 140
155 141
155 142
155 143
155 144
155 147
155 148
155 149
155 151
156 5
156 8
156 9
156 11
156 14
156 15
156 16
156 18
156 19
156 20
156 21
156 22
156 23
156 25
156 27
156 29
156 31
156 33
156 36
156 40
156 42
156 44
156 45
156 46
156 47
156 49
156 52
156 56
156 57
156 59
156 61
156 62
156 63
156 64
156 65
156 66
156 67
156 70
156 78
156 79
156 80
156 82
156 83
156 85
156 86
156 87
156 89
156 91
156 92
156 95
156 96
156 97
156 98
156 99
156 100
156 102
156 103
156 104
156 105
156 108
156 111
156 113
156 115
156 116
156 118
156 120
156 121
156 122
156 123
156 124
156 125
156 128
156 129
156 130
156 131
156 132
156 134
156 137
156 138
156 139
156 140
156 141
156 142
156 143
156 144
156 147
156 148
156 149
156 151
157 8
157 9
157 11
157 14
157 15
157 16
157 18
157 19
157 20
157 21
157 22
157 23
157 25
157 27
157 29
157 31
157 33
157 36
157 40
157 42
157 44
157 45
157 46
157 47
157 49
157 52
157 56
157 57
157 59
157 61
157 62
157 63
157 64
157 65
157 66
157 67
157 70
157 78
157 79
157 80
157 82
157 83
157 85
157 86
157 87
157 89
157 91
157 92
157 95
157 96
157 97
157 98
157 99
157 100
157 102
157 103
157 104
157 105
157 108
157 111
157 113
157 115
157 116
157 118
157 120
157 121
157 122
157 123
157 124
157 125
157 128
157 129
157 130
157 131
157 132
157 134
157 137
157 138
157 139
157 140
157 141
157 142
157 143
157 144
157 147
157 148
157 149
157 151
158 8
158 11
158 14
158 15
158 16
158 18
158 19
158 20
158 21
158 22
158 23
158 25
158 27
158 29
158 31
158 33
158 36
158 40
158 42
158 44
158 45
158 46
158 47
158 49
158 52
158 56
158 57
158 59
158 61
158 62
158 63
158 64
158 65
158 66
158 67
158 70
158 78
158 79
158 80
158 82
158 83
158 85
158 86
158 87
158 89
158 91
158 92
158 95
158 96
158 97
158 98
158 99
158 100
158 102
158 103
158 104
158 105
158 108
158 111
158 113
158 115
158 116
158 118
158 120
158 121
158 122
158 123
158 124
158 125
158 128
158 129
158 130
158 131
158 132
158 134
158 137
158 138
158 139
158 140
158 141
158 142
158 143
158 144
158 147
158 148
158 149
158 151
159 11
159 14
159 15
159 16
159 18
159 19
159 20
159 21
159 22
159 23
159 25
159 27
159 29
159 31
159 33
159 36
159 40
159 42
159 44
159 45
159 46
159 47
159 49
159 52
159 56
159 57
159 59
159 61
159 62
159 63
159 64
159 65
159 66
159 67
159 70
159 78
159 79
159 80
159 82
159 83
159 85
159 86
159 87
159 89
159 91
159 92
159 95
159 96
159 97
159 98
159 99
159 100
159 102
159 103
159 104
159 105
159 108
159 111
159 113
159 115
159 116
159 118
159 120
159 121
159 122
159 123
159 124
159 125
159 128
159 129
159 130
159 131
159 132
159 134
159 137
159 138
159 139
159 140
159 141
159 142
159 143
159 144
159 147
159 148
159 149
159 151
160 11
160 15
160 16
160 18
160 19
160 20
160 21
160 22
160 23
160 25
160 27
160 29
160 31
160 33
160 36
160 40
160 42
160 44
160 45
160 46
160 47
160 49
160 52
160 56
160 57
160 59
160 61
160 62
160 63
160 64
160 65
160 66
160 67
160 70
160 78
160 79
160 80
160 82
160 83
160 85
160 86
160 87
160 89
160 91
160 92
160 95
160 96
160 97
160 98
160 99
160 100
160 102
160 103
160 104
160 105
160 108
160 111
160 113
160 115
160 116
160 118
160 120
160 121
160 122
160 123
160 124
160 125
160 128
160 129
160 130
160 131
160 132
160 134
160 137
160 138
160 139
160 140
160 141
160 142
160 143
160 144
160 147
160 148
160 149
160 151
161 15
161 16
161 18
161 19
161 20
161 21
161 22
161 23
161 25
161 27
161 29
161 31
161 33
161 36
161 40
161 42
161 44
161 45
161 46
161 47
161 49
161 52
161 56
161 57
161 59
161 61
161 62
161 63
161 64
161 65
161 66
161 67
161 70
161 78
161 79
161 80
161 82
161 83
161 85
161 86
161 87
161 89
161 91
161 92
161 95
161 96
161 97
161 98
161 99
161 100
161 102
161 103
161 104
161 105
161 108
161 111
161 113
161 115
161 116
161 118
161 120
161 121
161 122
161 123
161 124
161 125
161 128
161 129
161 130
161 131
161 132
161 134
161 137
161 138
161 139
161 140
161 141
161 142
161 143
161 144
161 147
161 148
161 149
161 151
162 15
162 18
162 19
162 20
162 21
162 22
162 23
162 25
162 27
162 29
162 31
162 33
162 36
162 40
162 42
162 44
162 45
162 46
162 47
162 49
162 52
162 56
162 57
162 59
162 61
162 62
162 63
162 64
162 65
162 66
162 67
162 70
162 78
162 79
162 80
162 82
162 83
162 85
162 86
162 87
162 89
162 91
162 92
162 95
162 96
162 97
162 98
162 99
162 100
162 102
162 103
162 104
162 105
162 108
162 111
162 113
162 115
162 116
162 118
162 120
162 121
162 122
162 123
162 124
162 125
162 128
162 129
162 130
162 131
162 132
162 134
162 137
162 138
162 139
162 140
162 141
162 142
162 143
162 144
162 147
162 148
162 149
162 151
163 18
163 19
163 20
163 21
163 22
163 23
163 25
163 27
163 29
163 31
163 33
163 36
163 40
163 42
163 44
163 45
163 46
163 47
163 49
163 52
163 56
163 57
163 59
163 61
163 62
163 63
163 64
163 65
163 66
163 67
163 70
163 78
163 79
163 80
163 82
163 83
163 85
163 86
163 87
163 89
163 91
163 92
163 95
163 96
163 97
163 98
163 99
163 100
163 102
163 103
163 104
163 105
163 108
163 111
163 113
163 115
163 116
163 118
163 120
163 121
163 122
163 123
163 124
163 125
163 128
163 129
163 130
163 131
163 132
163 134
163 137
163 138
163 139
163 140
163 141
163 142
163 143
163 144
163 147
163 148
163 149
163 151
164 18
164 20
164 21
164 22
164 23
164 25
164 27
164 29
164 31
164 33
164 36
164 40
164 42
164 44
164 45
164 46
164 47
164 49
164 52
164 56
164 57
164 59
164 61
164 62
164 63
164 64
164 65
164 66
164 67
164 70
164 78
164 79
164 80
164 82
164 83
164 85
164 86
164 87
164 89
164 91
164 92
164 95
164 96
164 97
164 98
164 99
164 100
164 102
164 103
164 104
164 105
164 108
164 111
164 113
164 115
164 116
164 118
164 120
164 121
164 122
164 123
164 124
164 125
164 128
164 129
164 130
164 131
164 132
164 134
164 137
164 138
164 139
164 140
164 141
164 142
164 143
164 144
164 147
164 148
164 149
164 151
165 20
165 21
165 22
165 23
165 25
165 27
165 29
165 31
165 33
165 36
165 40
165 42
165 44
165 45
165 46
165 47
165 49
165 52
165 56
165 57
165 59
165 61
165 62
165 63
165 64
165 65
165 66
165 67
165 70
165 78
165 79
165 80
165 82
165 83
165 85
165 86
165 87
165 89
165 91
165 92
165 95
165 96
165 97
165 98
165 99
165 100
165 102
165 103
165 104
165 105
165 108
165 111
165 113
165 115
165 116
165 118
165 120
165 121
165 122
165 123
165 124
165 125
165 128
165 129
165 130
165 131
165 132
165 134
165 137
165 138
165 139
165 140
165 141
165 142
165 143
165 144
165 147
165 148
165 149
165 151
166 20
166 22
166 23
166 25
166 27
166 29
166 31
166 33
166 36
166 40
166 42
166 44
166 45
166 46
166 47
166 49
166 52
166 56
166 57
166 59
166 61
166 62
166 63
166 64
166 65
166 66
166 67
166 70
166 78
166 79
166 80
166 82
166 83
166 85
166 86
166 87
166 89
166 91
166 92
166 95
166 96
166 97
166 98
166 99
166 100
166 102
166 103
166 104
166 105
166 108
166 111
166 113
166 115
166 116
166 118
166 120
166 121
166 122
166 123
166 124
166 125
166 128
166 129
166 130
166 131
166 132
166 134
166 137
166 138
166 139
166 140
166 141
166 142
166 143
166 144
166 147
166 148
166 149
166 151
167 22
167 23
167 25
167 27
167 29
167 31
167 33
167 36
167 40
167 42
167 44
167 45
167 46
167 47
167 49
167 52
167 56
167 57
167 59
167 61
167 62
167 63
167 64
167 65
167 66
167 67
167 70
167 78
167 79
167 80
167 82
167 83
167 85
167 86
167 87
167 89
167 91
167 92
167 95
167 96
167 97
167 98
167 99
167 100
167 102
167 103
167 104
167 105
167 108
167 111
167 113
167 115
167 116
167 118
167 120
167 121
167 122
167 123
167 124
167 125
167 128
167 129
167 130
167 131
167 132
167 134
167 137
167 138
167 139
167 140
167 141
167 142
167 143
167 144
167 147
167 148
167 149
167 151
168 22
168 25
168 27
168 29
168 31
168 33
168 36
168 40
168 42
168 44
168 45
168 46
168 47
168 49
168 52
168 56
168 57
168 59
168 61
168 62
168 63
168 64
168 65
168 66
168 67
168 70
168 78
168 79
168 80
168 82
168 83
168 85
168 86
168 87
168 89
168 91
168 92
168 95
168 96
168 97
168 98
168 99
168 100
168 102
168 103
168 104
168 105
168 108
168 111
168 113
168 115
168 116
168 118
168 120
168 121
168 122
168 123
168 124
168 125
168 128
168 129
168 130
168 131
168 132
168 134
168 137
168 138
168 139
168 140
168 141
168 142
168 143
168 144
168 147
168 148
168 149
168 151
169 25
169 27
169 29
169 31
169 33
169 36
169 40
169 42
169 44
169 45
169 46
169 47
169 49
169 52
169 56
169 57
169 59
169 61
169 62
169 63
169 64
169 65
169 66
169 67
169 70
169 78
169 79
169 80
169 82
169 83
169 85
169 86
169 87
169 89
169 91
169 92
169 95
169 96
169 97
169 98
169 99
169 100
169 102
169 103
169 104
169 105
169 108
169 111
169 113
169 115
169 116
169 118
169 120
169 121
169 122
169 123
169 124
169 125
169 128
169 129
169 130
169 131
169 132
169 134
169 137
169 138
169 139
169 140
169 141
169 142
169 143
169 144
169 147
169 148
169 149
169 151
170 25
170 29
170 31
170 33
170 36
170 40
170 42
170 44
170 45
170 46
170 47
170 49
170 52
170 56
170 57
170 59
170 61
170 62
170 63
170 64
170 65
170 66
170 67
170 70
170 78
170 79
170 80
170 82
170 83
170 85
170 86
170 87
170 89
170 91
170 92
170 95
170 96
170 97
170 98
170 99
170 100
170 102
170 103
170 104
170 105
170 108
170 111
170 113
170 115
170 116
170 118
170 120
170 121
170 122
170 123
170 124
170 125
170 128
170 129
170 130
170 131
170 132
170 134
170 137
170 138
170 139
170 140
170 141
170 142
170 143
170 144
170 147
170 148
170 149
170 151
171 29
171 31
171 33
171 36
171 40
171 42
171 44
171 45
171 46
171 47
171 49
171 52
171 56
171 57
171 59
171 61
171 62
171 63
171 64
171 65
171 66
171 67
171 70
171 78
171 79
171 80
171 82
171 83
171 85
171 86
171 87
171 89
171 91
171 92
171 95
171 96
171 97
171 98
171 99
171 100
171 102
171 103
171 104
171 105
171 108
171 111
171 113
171 115
171 116
171 118
171 120
171 121
171 122
171 123
171 124
171 125
171 128
171 129
171 130
171 131
171 132
171 134
171 137
171 138
171 139
171 140
171 141
171 142
171 143
171 144
171 147
171 148
171 149
171 151
172 29
172 33
172 36
172 40
172 42
172 44
172 45
172 46
172 47
172 49
172 52
172 56
172 57
172 59
172 61
172 62
172 63
172 64
172 65
172 66
172 67
172 70
172 78
172 79
172 80
172 82
172 83
172 85
172 86
172 87
172 89
172 91
172 92
172 95
172 96
172 97
172 98
172 99
172 100
172 102
172 103
172 104
172 105
172 108
172 111
172 113
172 115
172 116
172 118
172 120
172 121
172 122
172 123
172 124
172 125
172 128
172 129
172 130
172 131
172 132
172 134
172 137
172 138
172 139
172 140
172 141
172 142
172 143
172 144
172 147
172 148
172 149
172 151
173 33
173 36
173 40
173 42
173 44
173 45
173 46
173 47
173 49
173 52
173 56
173 57
173 59
173 61
173 62
173 63
173 64
173 65
173 66
173 67
173 70
173 78
173 79
173 80
173 82
173 83
173 85
173 86
173 87
173 89
173 91
173 92
173 95
173 96
173 97
173 98
173 99
173 100
173 102
173 103
173 104
173 105
173 108
173 111
173 113
173 115
173 116
173 118
173 120
173 121
173 122
173 123
173 124
173 125
173 128
173 129
173 130
173 131
173 132
173 134
173 137
173 138
173 139
173 140
173 141
173 142
173 143
173 144
173 147
173 148
173 149
173 151
174 33
174 40
174 42
174 44
174 45
174 46
174 47
174 49
174 52
174 56
174 57
174 59
174 61
174 62
174 63
174 64
174 65
174 66
174 67
174 70
174 78
174 79
174 80
174 82
174 83
174 85
174 86
174 87
174 89
174 91
174 92
174 95
174 96
174 97
174 98
174 99
174 100
174 102
174 103
174 104
174 105
174 108
174 111
174 113
174 115
174 116
174 118
174 120
174 121
174 122
174 123
174 124
174 125
174 128
174 129
174 130
174 131
174 132
174 134
174 137
174 138
174 139
174 140
174 141
174 142
174 143
174 144
174 147
174 148
174 149
174 151
175 40
175 42
175 44
175 45
175 46
175 47
175 49
175 52
175 56
175 57
175 59
175 61
175 62
175 63
175 64
175 65
175 66
175 67
175 70
175 78
175 79
175 80
175 82
175 83
175 85
175 86
175 87
175 89
175 91
175 92
175 95
175 96
175 97
175 98
175 99
175 100
175 102
175 103
175 104
175 105
175 108
175 111
175 113
175 115
175 116
175 118
175 120
175 121
175 122
175 123
175 124
175 125
175 128
175 129
175 130
175 131
175 132
175 134
175 137
175 138
175 139
175 140
175 141
175 142
175 143
175 144
175 147
175 148
175 149
175 151
176 40
176 44
176 45
176 46
176 47
176 49
176 52
176 56
176 57
176 59
176 61
176 62
176 63
176 64
176 65
176 66
176 67
176 70
176 78
176 79
176 80
176 82
176 83
176 85
176 86
176 87
176 89
176 91
176 92
176 95
176 96
176 97
176 98
176 99
176 100
176 102
176 103
176 104
176 105
176 108
176 111
176 113
176 115
176 116
176 118
176 120
176 121
176 122
176 123
176 124
176 125
176 128
176 129
176 130
176 131
176 132
176 134
176 137
176 138
176 139
176 140
176 141
176 142
176 143
176 144
176 147
176 148
176 149
176 151
177 44
177 45
177 46
177 47
177 49
177 52
177 56
177 57
177 59
177 61
177 62
177 63
177 64
177 65
177 66
177 67
177 70
177 78
177 79
177 80
177 82
177 83
177 85
177 86
177 87
177 89
177 91
177 92
177 95
177 96
177 97
177 98
177 99
177 100
177 102
177 103
177 104
177 105
177 108
177 111
177 113
177 115
177 116
177 118
177 120
177 121
177 122
177 123
177 124
177 125
177 128
177 129
177 130
177 131
177 132
177 134
177 137
177 138
177 139
177 140
177 141
177 142
177 143
177 144
177 147
177 148
177 149
177 151
178 44
178 46
178 47
178 49
178 52
178 56
178 57
178 59
178 61
178 62
178 63
178 64
178 65
178 66
178 67
178 70
178 78
178 79
178 80
178 82
178 83
178 85
178 86
178 87
178 89
178 91
178 92
178 95
178 96
178 97
178 98
178 99
178 100
178 102
178 103
178 104
178 105
178 108
178 111
178 113
178 115
178 116
178 118
178 120
178 121
178 122
178 123
178 124
178 125
178 128
178 129
178 130
178 131
178 132
178 134
178 137
178 138
178 139
178 140
178 141
178 142
178 143
178 144
178 147
178 148
178 149
178 151
179 46
179 47
179 49
179 52
179 56
179 57
179 59
179 61
179 62
179 63
179 64
179 65
179 66
179 67
179 70
179 78
179 79
179 80
179 82
179 83
179 85
179 86
179 87
179 89
179 91
179 92
179 95
179 96
179 97
179 98
179 99
179 100
179 102
179 103
179 104
179 105
179 108
179 111
179 113
179 115
179 116
179 118
179 120
179 121
179 122
179 123
179 124
179 125
179 128
179 129
179 130
179 131
179 132
179 134
179 137
179 138
179 139
179 140
179 141
179 142
179 143
179 144
179 147
179 148
179 149
179 151
180 46
180 49
180 52
180 56
180 57
180 59
180 61
180 62
180 63
180 64
180 65
180 66
180 67
180 70
180 78
180 79
180 80
180 82
180 83
180 85
180 86
180 87
180 89
180 91
180 92
180 95
180 96
180 97
180 98
180 99
180 100
180 102
180 103
180 104
180 105
180 108
180 111
180 113
180 115
180 116
180 118
180 120
180 121
180 122
180 123
180 124
180 125
180 128
180 129
180 130
180 131
180 132
180 134
180 137
180 138
180 139
180 140
180 141
180 142
180 143
180 144
180 147
180 148
180 149
180 151
181 49
181 52
181 56
181 57
181 59
181 61
181 62
181 63
181 64
181 65
181 66
181 67
181 70
181 78
181 79
181 80
181 82
181 83
181 85
181 86
181 87
181 89
181 91
181 92
181 95
181 96
181 97
181 98
181 99
181 100
181 102
181 103
181 104
181 105
181 108
181 111
181 113
181 115
181 116
181 118
181 120
181 121
181 122
181 123
181 124
181 125
181 128
181 129
181 130
181 131
181 132
181 134
181 137
181 138
181 139
181 140
181 141
181 142
181 143
181 144
181 147
181 148
181 149
181 151
182 49
182 56
182 57
182 59
182 61
182 62
182 63
182 64
182 65
182 66
182 67
182 70
182 78
182 79
182 80
182 82
182 83
182 85
182 86
182 87
182 89
182 91
182 92
182 95
182 96
182 97
182 98
182 99
182 100
182 102
182 103
182 104
182 105
182 108
182 111
182 113
182 115
182 116
182 118
182 120
182 121
182 122
182 123
182 124
182 125
182 128
182 129
182 130
182 131
182 132
182 134
182 137
182 138
182 139
182 140
182 141
182 142
182 143
182 144
182 147
182 148
182 149
182 151
183 56
183 57
183 59
183 61
183 62
183 63
183 64
183 65
183 66
183 67
183 70
183 78
183 79
183 80
183 82
183 83
183 85
183 86
183 87
183 89
183 91
183 92
183 95
183 96
183 97
183 98
183 99
183 100
183 102
183 103
183 104
183 105
183 108
183 111
183 113
183 115
183 116
183 118
183 120
183 121
183 122
183 123
183 124
183 125
183 128
183 129
183 130
183 131
183 132
183 134
183 137
183 138
183 139
183 140
183 141
183 142
183 143
183 144
183 147
183 148
183 149
183 151
184 56
184 59
184 61
184 62
184 63
184 64
184 65
184 66
184 67
184 70
184 78
184 79
184 80
184 82
184 83
184 85
184 86
184 87
184 89
184 91
184 92
184 95
184 96
184 97
184 98
184 99
184 100
184 102
184 103
184 104
184 105
184 108
184 111
184 113
184 115
184 116
184 118
184 120
184 121
184 122
184 123
184 124
184 125
184 128
184 129
184 130
184 131
184 132
184 134
184 137
184 138
184 139
184 140
184 141
184 142
184 143
184 144
184 147
184 148
184 149
184 151
185 59
185 61
185 62
185 63
185 64
185 65
185 66
185 67
185 70
185 78
185 79
185 80
185 82
185 83
185 85
185 86
185 87
185 89
185 91
185 92
185 95
185 96
185 97
185 98
185 99
185 100
185 102
185 103
185 104
185 105
185 108
185 111
185 113
185 115
185 116
185 118
185 120
185 121
185 122
185 123
185 124
185 125
185 128
185 129
185 130
185 131
185 132
185 134
185 137
185 138
185 139
185 140
185 141
185 142
185 143
185 144
185 147
185 148
185 149
185 151
186 59
186 62
186 63
186 64
186 65
186 66
186 67
186 70
186 78
186 79
186 80
186 82
186 83
186 85
186 86
186 87
186 89
186 91
186 92
186 95
186 96
186 97
186 98
186 99
186 100
186 102
186 103
186 104
186 105
186 108
186 111
186 113
186 115
186 116
186 118
186 120
186 121
186 122
186 123
186 124
186 125
186 128
186 129
186 130
186 131
186 132
186 134
186 137
186 138
186 139
186 140
186 141
186 142
186 143
186 144
186 147
186 148
186 149
186 151
187 62
187 63
187 64
187 65
187 66
187 67
187 70
187 78
187 79
187 80
187 82
187 83
187 85
187 86
187 87
187 89
187 91
187 92
187 95
187 96
187 97
187 98
187 99
187 100
187 102
187 103
187 104
187 105
187 108
187 111
187 113
187 115
187 116
187 118
187 120
187 121
187 122
187 123
187 124
187 125
187 128
187 129
187 130
187 131
187 132
187 134
187 137
187 138
187 139
187 140
187 141
187 142
187 143
187 144
187 147
187 148
187 149
187 151
188 62
188 64
188 65
188 66
188 67
188 70
188 78
188 79
188 80
188 82
188 83
188 85
188 86
188 87
188 89
188 91
188 92
188 95
188 96
188 97
188 98
188 99
188 100
188 102
188 103
188 104
188 105
188 108
188 111
188 113
188 115
188 116
188 118
188 120
188 121
188 122
188 123
188 124
188 125
188 128
188 129
188 130
188 131
188 132
188 134
188 137
188 138
188 139
188 140
188 141
188 142
188 143
188 144
188 147
188 148
188 149
188 151
189 64
189 65
189 66
189 67
189 70
189 78
189 79
189 80
189 82
189 83
189 85
189 86
189 87
189 89
189 91
189 92
189 95
189 96
189 97
189 98
189 99
189 100
189 102
189 103
189 104
189 105
189 108
189 111
189 113
189 115
189 116
189 118
189 120
189 121
189 122
189 123
189 124
189 125
189 128
189 129
189 130
189 131
189 132
189 134
189 137
189 138
189 139
189 140
189 141
189 142
189 143
189 144
189 147
189 148
189 149
189 151
190 64
190 66
190 67
190 70
190 78
190 79
190 80
190 82
190 83
190 85
190 86
190 87
190 89
190 91
190 92
190 95
190 96
190 97
190 98
190 99
190 100
190 102
190 103
190 104
190 105
190 108
190 111
190 113
190 115
190 116
190 118
190 120
190 121
190 122
190 123
190 124
190 125
190 128
190 129
190 130
190 131
190 132
190 134
190 137
190 138
190 139
190 140
190 141
190 142
190 143
190 144
190 147
190 148
190 149
190 151
191 66
191 67
191 70
191 78
191 79
191 80
191 82
191 83
191 85
191 86
191 87
191 89
191 91
191 92
191 95
191 96
191 97
191 98
191 99
191 100
191 102
191 103
191 104
191 105
191 108
191 111
191 113
191 115
191 116
191 118
191 120
191 121
191 122
191 123
191 124
191 125
191 128
191 129
191 130
191 131
191 132
191 134
191 137
191 138
191 139
191 140
191 141
191 142
191 143
191 144
191 147
191 148
191 149
191 151
192 66
192 70
192 78
192 79
192 80
192 82
192 83
192 85
192 86
192 87
192 89
192 91
192 92
192 95
192 96
192 97
192 98
192 99
192 100
192 102
192 103
192 104
192 105
192 108
192 111
192 113
192 115
192 116
192 118
192 120
192 121
192 122
192 123
192 124
192 125
192 128
192 129
192 130
192 131
192 132
192 134
192 137
192 138
192 139
192 140
192 141
192 142
192 143
192 144
192 147
192 148
192 149
192 151
193 70
193 78
193 79
193 80
193 82
193 83
193 85
193 86
193 87
193 89
193 91
193 92
193 95
193 96
193 97
193 98
193 99
193 100
193 102
193 103
193 104
193 105
193 108
193 111
193 113
193 115
193 116
193 118
193 120
193 121
193 122
193 123
193 124
193 125
193 128
193 129
193 130
193 131
193 132
193 134
193 137
193 138
193 139
193 140
193 141
193 142
193 143
193 144
193 147
193 148
193 149
193 151
194 70
194 79
194 80
194 82
194 83
194 85
194 86
194 87
194 89
194 91
194 92
194 95
194 96
194 97
194 98
194 99
194 100
194 102
194 103
194 104
194 105
194 108
194 111
194 113
194 115
194 116
194 118
194 120
194 121
194 122
194 123
194 124
194 125
194 128
194 129
194 130
194 131
194 132
194 134
194 137
194 138
194 139
194 140
194 141
194 142
194 143
194 144
194 147
194 148
194 149
194 151
195 79
195 80
195 82
195 83
195 85
195 86
195 87
195 89
195 91
195 92
195 95
195 96
195 97
195 98
195 99
195 100
195 102
195 103
195 104
195 105
195 108
195 111
195 113
195 115
195 116
195 118
195 120
195 121
195 122
195 123
195 124
195 125
195 128
195 129
195 130
195 131
195 132
195 134
195 137
195 138
195 139
195 140
195 141
195 142
195 143
195 144
195 147
195 148
195 149
195 151
196 79
196 82
196 83
196 85
196 86
196 87
196 89
196 91
196 92
196 95
196 96
196 97
196 98
196 99
196 100
196 102
196 103
196 104
196 105
196 108
196 111
196 113
196 115
196 116
196 118
196 120
196 121
196 122
196 123
196 124
196 125
196 128
196 129
196 130
196 131
196 132
196 134
196 137
196 138
196 139
196 140
196 141
196 142
196 143
196 144
196 147
196 148
196 149
196 151
197 82
197 83
197 85
197 86
197 87
197 89
197 91
197 92
197 95
197 96
197 97
197 98
197 99
197 100
197 102
197 103
197 104
197 105
197 108
197 111
197 113
197 115
197 116
197 118
197 120
197 121
197 122
197 123
197 124
197 125
197 128
197 129
197 130
197 131
197 132
197 134
197 137
197 138
197 139
197 140
197 141
197 142
197 143
197 144
197 147
197 148
197 149
197 151
198 82
198 85
198 86
198 87
198 89
198 91
198 92
198 95
198 96
198 97
198 98
198 99
198 100
198 102
198 103
198 104
198 105
198 108
198 111
198 113
198 115
198 116
198 118
198 120
198 121
198 122
198 123
198 124
198 125
198 128
198 129
198 130
198 131
198 132
198 134
198 137
198 138
198 139
198 140
198 141
198 142
198 143
198 144
198 147
198 148
198 149
198 151
199 85
199 86
199 87
199 89
199 91
199 92
199 95
199 96
199 97
199 98
199 99
199 100
199 102
199 103
199 104
199 105
199 108
199 111
199 113
199 115
199 116
199 118
199 120
199 121
199 122
199 123
199 124
199 125
199 128
199 129
199 130
199 131
199 132
199 134
199 137
199 138
199 139
199 140
199 141
199 142
199 143
199 144
199 147
199 148
199 149
199 151
200 85
200 87
200 89
200 91
200 92
200 95
200 96
200 97
200 98
200 99
200 100
200 102
200 103
200 104
200 105
200 108
200 111
200 113
200 115
200 116
200 118
200 120
200 121
200 122
200 123
200 124
200 125
200 128
200 129
200 130
200 131
200 132
200 134
200 137
200 138
200 139
200 140
200 141
200 142
200 143
200 144
200 147
200 148
200 149
200 151
201 87
201 89
201 91
201 92
201 95
201 96
201 97
201 98
201 99
201 100
201 102
201 103
201 104
201 105
201 108
201 111
201 113
201 115
201 116
201 118
201 120
201 121
201 122
201 123
201 124
201 125
201 128
201 129
201 130
201 131
201 132
201 134
201 137
201 138
201 139
201 140
201 141
201 142
201 143
201 144
201 147
201 148
201 149
201 151
202 87
202 91
202 92
202 95
202 96
202 97
202 98
202 99
202 100
202 102
202 103
202 104
202 105
202 108
202 111
202 113
202 115
202 116
202 118
202 120
202 121
202 122
202 123
202 124
202 125
202 128
202 129
202 130
202 131
202 132
202 134
202 137
202 138
202 139
202 140
202 141
202 142
202 143
202 144
202 147
202 148
202 149
202 151
203 91
203 92
203 95
203 96
203 97
203 98
203 99
203 100
203 102
203 103
203 104
203 105
203 108
203 111
203 113
203 115
203 116
203 118
203 120
203 121
203 122
203 123
203 124
203 125
203 128
203 129
203 130
203 131
203 132
203 134
203 137
203 138
203 139
203 140
203 141
203 142
203 143
203 144
203 147
203 148
203 149
203 151
204 91
204 95
204 96
204 97
204 98
204 99
204 100
204 102
204 103
204 104
204 105
204 108
204 111
204 113
204 115
204 116
204 118
204 120
204 121
204 122
204 123
204 124
204 125
204 128
204 129
204 130
204 131
204 132
204 134
204 137
204 138
204 139
204 140
204 141
204 142
204 143
204 144
204 147
204 148
204 149
204 151
205 95
205 96
205 97
205 98
205 99
205 100
205 102
205 103
205 104
205 105
205 108
205 111
205 113
205 115
205 116
205 118
205 120
205 121
205 122
205 123
205 124
205 125
205 128
205 129
205 130
205 131
205 132
205 134
205 137
205 138
205 139
205 140
205 141
205 142
205 143
205 144
205 147
205 148
205 149
205 151
206 95
206 97
206 98
206 99
206 100
206 102
206 103
206 104
206 105
206 108
206 111
206 113
206 115
206 116
206 118
206 120
206 121
206 122
206 123
206 124
206 125
206 128
206 129
206 130
206 131
206 132
206 134
206 137
206 138
206 139
206 140
206 141
206 142
206 143
206 144
206 147
206 148
206 149
206 151
207 97
207 98
207 99
207 100
207 102
207 103
207 104
207 105
207 108
207 111
207 113
207 115
207 116
207 118
207 120
207 121
207 122
207 123
207 124
207 125
207 128
207 129
207 130
207 131
207 132
207 134
207 137
207 138
207 139
207 140
207 141
207 142
207 143
207 144
207 147
207 148
207 149
207 151
208 97
208 99
208 100
208 102
208 103
208 104
208 105
208 108
208 111
208 113
208 115
208 116
208 118
208 120
208 121
208 122
208 123
208 124
208 125
208 128
208 129
208 130
208 131
208 132
208 134
208 137
208 138
208 139
208 140
208 141
208 142
208 143
208 144
208 147
208 148
208 149
208 151
209 99
209 100
209 102
209 103
209 104
209 105
209 108
209 111
209 113
209 115
209 116
209 118
209 120
209 121
209 122
209 123
209 124
209 125
209 128
209 129
209 130
209 131
209 132
209 134
209 137
209 138
209 139
209 140
209 141
209 142
209 143
209 144
209 147
209 148
209 149
209 151
210 99
210 102
210 103
210 104
210 105
210 108
210 111
210 113
210 115
210 116
210 118
210 120
210 121
210 122
210 123
210 124
210 125
210 128
210 129
210 130
210 131
210 132
210 134
210 137
210 138
210 139
210 140
210 141
210 142
210 143
210 144
210 147
210 148
210 149
210 151
211 102
211 103
211 104
211 105
211 108
211 111
211 113
211 115
211 116
211 118
211 120
211 121
211 122
211 123
211 124
211 125
211 128
211 129
211 130
211 131
211 132
211 134
211 137
211 138
211 139
211 140
211 141
211 142
211 143
211 144
211 147
211 148
211 149
211 151
212 102
212 104
212 105
212 108
212 111
212 113
212 115
212 116
212 118
212 120
212 121
212 122
212 123
212 124
212 125
212 128
212 129
212 130
212 131
212 132
212 134
212 137
212 138
212 139
212 140
212 141
212 142
212 143
212 144
212 147
212 148
212 149
212 151
213 104
213 105
213 108
213 111
213 113
213 115
213 116
213 118
213 120
213 121
213 122
213 123
213 124
213 125
213 128
213 129
213 130
213 131
213 132
213 134
213 137
213 138
213 139
213 140
213 141
213 142
213 143
213 144
213 147
213 148
213 149
213 151
214 104
214 108
214 111
214 113
214 115
214 116
214 118
214 120
214 121
214 122
214 123
214 124
214 125
214 128
214 129
214 130
214 131
214 132
214 134
214 137
214 138
214 139
214 140
214 141
214 142
214 143
214 144
214 147
214 148
214 149
214 151
215 108
215 111
215 113
215 115
215 116
215 118
215 120
215 121
215 122
215 123
215 124
215 125
215 128
215 129
215 130
215 131
215 132
215 134
215 137
215 138
215 139
215 140
215 141
215 142
215 143
215 144
215 147
215 148
215 149
215 151
216 108
216 113
216 115
216 116
216 118
216 120
216 121
216 122
216 123
216 124
216 125
216 128
216 129
216 130
216 131
216 132
216 134
216 137
216 138
216 139
216 140
216 141
216 142
216 143
216 144
216 147
216 148
216 149
216 151
217 113
217 115
217 116
217 118
217 120
217 121
217 122
217 123
217 124
217 125
217 128
217 129
217 130
217 131
217 132
217 134
217 137
217 138
217 139
217 140
217 141
217 142
217 143
217 144
217 147
217 148
217 149
217 151
218 113
218 116
218 118
218 120
218 121
218 122
218 123
218 124
218 125
218 128
218 129
218 130
218 131
218 132
218 134
218 137
218 138
218 139
218 140
218 141
218 142
218 143
218 144
218 147
218 148
218 149
218 151
219 116
219 118
219 120
219 121
219 122
219 123
219 124
219 125
219 128
219 129
219 130
219 131
219 132
219 134
219 137
219 138
219 139
219 140
219 141
219 142
219 143
219 144
219 147
219 148
219 149
219 151
220 116
220 120
220 121
220 122
220 123
220 124
220 125
220 128
220 129
220 130
220 131
220 132
220 134
220 137
220 138
220 139
220 140
220 141
220 142
220 143
220 144
220 147
220 148
220 149
220 151
221 120
221 121
221 122
221 123
221 124
221 125
221 128
221 129
221 130
221 131
221 132
221 134
221 137
221 138
221 139
221 140
221 141
221 142
221 143
221 144
221 147
221 148
221 149
221 151
222 120
222 122
222 123
222 124
222 125
222 128
222 129
222 130
222 131
222 132
222 134
222 137
222 138
222 139
222 140
222 141
222 142
222 143
222 144
222 147
222 148
222 149
222 151
223 122
223 123
223 124
223 125
223 128
223 129
223 130
223 131
223 132
223 134
223 137
223 138
223 139
223 140
223 141
223 142
223 143
223 144
223 147
223 148
223 149
223 151
224 122
224 124
224 125
224 128
224 129
224 130
224 131
224 132
224 134
224 137
224 138
224 139
224 140
224 141
224 142
224 143
224 144
224 147
224 148
224 149
224 151
225 124
225 125
225 128
225 129
225 130
225 131
225 132
225 134
225 137
225 138
225 139
225 140
225 141
225 142
225 143
225 144
225 147
225 148
225 149
225 151
226 124
226 128
226 129
226 130
226 131
226 132
226 134
226 137
226 138
226 139
226 140
226 141
226 142
226 143
226 144
226 147
226 148
226 149
226 151
227 128
227 129
227 130
227 131
227 132
227 134
227 137
227 138
227 139
227 140
227 141
227 142
227 143
227 144
227 147
227 148
227 149
227 151
228 128
228 130
228 131
228 132
228 134
228 137
228 138
228 139
228 140
228 141
228 142
228 143
228 144
228 147
228 148
228 149
228 151
229 130
229 131
229 132
229 134
229 137
229 138
229 139
229 140
229 141
229 142
229 143
229 144
229 147
229 148
229 149
229 151
230 130
230 132
230 134
230 137
230 138
230 139
230 140
230 141
230 142
230 143
230 144
230 147
230 148
230 149
230 151
231 132
231 134
231 137
231 138
231 139
231 140
231 141
231 142
231 143
231 144
231 147
231 148
231 149
231 151
232 132
232 137
232 138
232 139
232 140
232 141
232 142
232 143
232 144
232 147
232 148
232 149
232 151
233 137
233 138
233 139
233 140
233 141
233 142
233 143
233 144
233 147
233 148
233 149
233 151
234 137
234 139
234 140
234 141
234 142
234 143
234 144
234 147
234 148
234 149
234 151
235 139
235 140
235 141
235 142
235 143
235 144
235 147
235 148
235 149
235 151
236 139
236 141
236 142
236 143
236 144
236 147
236 148
236 149
236 151
237 141
237 142
237 143
237 144
237 147
237 148
237 149
237 151
238 141
238 143
238 144
238 147
238 148
238 149
238 151
239 143
239 144
239 147
239 148
239 149
239 151
240 143
240 147
240 148
240 149
240 151
241 147
241 148
241 149
241 151
242 147
242 149
242 151
243 149
243 151
244 149
152
153
154
155
156
157
74
158
159
10
160
38
90
161
162
163
114
164
165
166
167
168
169
93
170
24
171
35
172
72
173
54
174
127
69
175
51
84
77
176
117
177
76
178
179
180
181
112
182
68
81
183
48
110
58
184
185
34
186
126
187
188
189
190
191
192
193
75
135
194
32
13
119
106
145
39
43
195
196
197
88
198
199
146
200
201
202
37
203
30
204
205
101
7
206
207
208
209
210
211
26
212
213
214
215
94
133
216
53
71
217
109
218
150
219
220
73
221
41
222
223
224
225
226
227
107
55
228
229
230
231
232
60
233
28
17
234
235
236
237
238
239
240
241
50
12
242
243
244
136
245
2
1
4
3
6
5
9
8
14
11
16
15
19
18
21
20
23
22
27
25
31
29
36
33
42
40
45
44
47
46
52
49
57
56
61
59
63
62
65
64
67
66
78
70
80
79
83
82
86
85
89
87
92
91
96
95
98
97
100
99
103
102
105
104
111
108
115
113
118
116
121
120
123
122
125
124
129
128
131
130
134
132
138
137
140
139
142
141
144
143
148
147
151
149
